<?xml version="1.0" encoding="utf-8"?>
<!-- Generator: Adobe Illustrator 24.1.2, SVG Export Plug-In . SVG Version: 6.00 Build 0)  -->
<svg version="1.1" xmlns="http://www.w3.org/2000/svg" xmlns:xlink="http://www.w3.org/1999/xlink" x="0px" y="0px"
	 viewBox="0 0 767 299" style="enable-background:new 0 0 767 299;" xml:space="preserve">
<style type="text/css">
	.st0{fill-rule:evenodd;clip-rule:evenodd;fill:#4472C4;}
	.st1{fill-rule:evenodd;clip-rule:evenodd;fill:#5B9BD5;}
	.st2{fill-rule:evenodd;clip-rule:evenodd;fill:#A5A5A5;}
	.st3{fill-rule:evenodd;clip-rule:evenodd;fill:#FFC000;}
</style>
<g id="Layer_4">
	<polygon class="st0" points="646.4,213.8 5.1,213.8 5.1,268.8 701.3,268.8 	"/>
</g>
<g id="Layer_3">
	<polygon class="st1" points="645.6,212.9 591.5,158.8 5.1,158.8 5.1,213.8 646.4,213.8 	"/>
</g>
<g id="Layer_2">
	<polygon class="st2" points="590.7,158 536.6,103.8 5.1,103.8 5.1,158.8 591.5,158.8 	"/>
</g>
<g id="Layer_1">
	<polygon class="st3" points="536.3,103.5 536.3,103.5 483.6,50.7 476.7,43.8 5.1,43.8 5.1,103.8 536.6,103.8 	"/>
</g>
</svg>
