<?xml version="1.0" encoding="utf-8"?>
<!-- Generator: Adobe Illustrator 24.1.2, SVG Export Plug-In . SVG Version: 6.00 Build 0)  -->
<svg version="1.1" id="Layer_1" xmlns="http://www.w3.org/2000/svg" xmlns:xlink="http://www.w3.org/1999/xlink" x="0px" y="0px"
	 viewBox="0 0 1021 547" style="enable-background:new 0 0 1021 547;" xml:space="preserve">
<style type="text/css">
	.st0{fill:#FFFFFF;}
	.st1{fill:#5FB49C;}
	.st2{fill:#77877A;}
	.st3{fill:#B2EF9B;}
</style>
<g>
	<path id="XMLID_9599_" class="st0" d="M511.9,334.6c-8-12.4-24.4-15.9-36.7-8c-12.4,8-15.9,24.4-8,36.7c8,12.4,24.4,15.9,36.7,8
		C516.2,363.5,519.8,347,511.9,334.6z"/>
	<path id="XMLID_9603_" class="st0" d="M573.3,479.5c72.1-46.3,93-142.2,46.8-214.2c-46.2-72-142.2-93-214.2-46.8
		c-72.1,46.3-93,142.2-46.8,214.2C405.2,504.8,501.1,525.7,573.3,479.5z M405.9,468.7c-5.4-3.8-6.8-11.3-3-16.9
		c3.8-5.4,11.3-6.8,16.9-3c5.4,3.8,6.8,11.3,3,16.9C419,471.1,411.5,472.5,405.9,468.7z M458.4,491.5c-6.5-1.4-10.6-7.9-9.2-14.4
		c1.4-6.5,7.9-10.6,14.4-9.2c6.5,1.4,10.6,7.9,9.2,14.4C471.4,488.9,464.9,493,458.4,491.5z M515,492.6c-6.5,1.2-12.8-3.2-14-9.8
		c-1.2-6.5,3.2-12.8,9.8-14c6.5-1.2,12.8,3.2,14,9.8C526,485.2,521.6,491.5,515,492.6z M571.9,455.1c3.6,5.6,2,13.1-3.6,16.7
		c-5.6,3.6-13.1,2-16.7-3.6s-2-13.1,3.6-16.7C560.9,447.9,568.4,449.5,571.9,455.1z M606.2,415.7c5.4,3.8,6.8,11.3,3,16.9
		c-3.8,5.4-11.3,6.8-16.9,3c-5.5-3.8-6.8-11.3-3-16.9C593.2,413.2,600.7,411.9,606.2,415.7z M622.8,365.8c6.5,1.4,10.6,7.9,9.2,14.4
		c-1.4,6.5-7.9,10.6-14.4,9.2c-6.5-1.4-10.6-7.9-9.2-14.4C609.9,368.4,616.4,364.4,622.8,365.8z M633.2,323.5
		c1.2,6.5-3.2,12.8-9.8,14s-12.8-3.2-14-9.8c-1.2-6.5,3.2-12.8,9.8-14C625.7,312.6,632,316.9,633.2,323.5z M612.3,270.3
		c3.6,5.6,2,13.1-3.6,16.7c-5.6,3.6-13.1,2-16.7-3.6c-3.6-5.6-2-13.1,3.6-16.7C601.2,263,608.7,264.6,612.3,270.3z M573.1,229.4
		c5.4,3.8,6.8,11.3,3,16.9c-3.8,5.4-11.3,6.8-16.9,3c-5.4-3.8-6.8-11.3-3-16.9C560,226.9,567.6,225.6,573.1,229.4z M520.7,206.5
		c6.5,1.4,10.6,7.9,9.2,14.4c-1.4,6.5-7.9,10.6-14.4,9.2c-6.5-1.4-10.6-7.9-9.2-14.4C507.7,209.2,514.2,205,520.7,206.5z M464,205.3
		c6.5-1.2,12.8,3.2,14,9.8s-3.2,12.8-9.8,14s-12.8-3.2-14-9.8C453.1,212.8,457.4,206.5,464,205.3z M407.1,242.9
		c-3.6-5.6-2-13.1,3.6-16.7c5.6-3.6,13.1-2,16.7,3.6c3.6,5.6,2,13.1-3.6,16.7S410.7,248.5,407.1,242.9z M372.8,282.3
		c-5.4-3.8-6.8-11.3-3-16.9c3.8-5.4,11.3-6.8,16.9-3c5.4,3.8,6.8,11.3,3,16.9C385.9,284.8,378.4,286.1,372.8,282.3z M356.2,332.3
		c-6.5-1.4-10.6-7.9-9.2-14.4c1.4-6.5,7.9-10.6,14.4-9.2c6.5,1.4,10.6,7.9,9.2,14.4C369.1,329.6,362.7,333.7,356.2,332.3z
		 M345.8,374.5c-1.2-6.5,3.2-12.8,9.8-14c6.5-1.2,12.8,3.2,14,9.8c1.2,6.5-3.2,12.8-9.8,14C353.3,385.5,347,381.1,345.8,374.5z
		 M430,256.3c51.2-32.9,119.4-18,152.3,33.3c32.9,51.2,18,119.3-33.3,152.2c-51.2,32.9-119.4,18-152.3-33.3
		C363.9,357.3,378.8,289.2,430,256.3z M366.7,427.8c-3.6-5.6-2-13.1,3.6-16.7c5.6-3.6,13.1-2,16.7,3.6c3.6,5.6,2,13.1-3.6,16.7
		C377.8,435,370.3,433.4,366.7,427.8z"/>
	<path id="XMLID_10311_" class="st1" d="M549,441.7c51.2-32.9,66.1-101,33.3-152.3c-32.9-51.2-101-66-152.3-33.2
		s-66.1,101-33.3,152.3C429.7,459.7,497.8,474.6,549,441.7z M467.2,363.4c-8-12.4-4.3-28.8,8-36.7c12.4-8,28.8-4.3,36.7,8
		c8,12.4,4.3,28.8-8,36.7C491.5,379.3,475.1,375.7,467.2,363.4z"/>
	<path id="XMLID_10312_" class="st1" d="M383.4,431.4c5.6-3.6,7.3-11.1,3.6-16.7c-3.6-5.6-11.1-7.3-16.7-3.6
		c-5.6,3.6-7.3,11.1-3.6,16.7C370.3,433.4,377.8,435,383.4,431.4z"/>
	<path id="XMLID_10313_" class="st1" d="M592,283.3c3.6,5.6,11.1,7.3,16.7,3.6c5.6-3.6,7.3-11.1,3.6-16.7
		c-3.6-5.6-11.1-7.3-16.7-3.6C590,270.2,588.4,277.7,592,283.3z"/>
	<path id="XMLID_10314_" class="st1" d="M551.6,468.2c3.6,5.6,11.1,7.3,16.7,3.6c5.6-3.6,7.3-11.1,3.6-16.7
		c-3.6-5.6-11.1-7.3-16.7-3.6C549.6,455.1,548,462.5,551.6,468.2z"/>
	<path id="XMLID_10315_" class="st1" d="M427.5,229.8c-3.6-5.6-11.1-7.3-16.7-3.6c-5.6,3.6-7.3,11.1-3.6,16.7
		c3.6,5.6,11.1,7.3,16.7,3.6S431,235.5,427.5,229.8z"/>
	<path id="XMLID_10316_" class="st1" d="M472.8,482.3c1.4-6.5-2.7-12.9-9.2-14.4c-6.5-1.4-12.9,2.7-14.4,9.2
		c-1.4,6.5,2.7,12.9,9.2,14.4C464.9,493,471.4,488.9,472.8,482.3z"/>
	<path id="XMLID_10317_" class="st1" d="M506.3,215.7c-1.4,6.5,2.7,12.9,9.2,14.4c6.5,1.4,12.9-2.7,14.4-9.2
		c1.4-6.5-2.7-12.9-9.2-14.4S507.7,209.2,506.3,215.7z"/>
	<path id="XMLID_10318_" class="st1" d="M608.5,375c-1.4,6.5,2.7,12.9,9.2,14.4c6.5,1.4,12.9-2.7,14.4-9.2
		c1.4-6.5-2.7-12.9-9.2-14.4C616.4,364.4,609.9,368.4,608.5,375z"/>
	<path id="XMLID_10319_" class="st1" d="M370.6,323.1c1.4-6.5-2.7-12.9-9.2-14.4c-6.5-1.4-12.9,2.7-14.4,9.2
		c-1.4,6.5,2.7,12.9,9.2,14.4C362.7,333.7,369.1,329.6,370.6,323.1z"/>
	<path id="XMLID_10320_" class="st1" d="M422.8,465.7c3.8-5.4,2.5-13-3-16.9c-5.4-3.8-13-2.5-16.9,3c-3.8,5.4-2.5,13,3,16.9
		C411.5,472.5,419,471.1,422.8,465.7z"/>
	<path id="XMLID_10321_" class="st1" d="M556.2,232.3c-3.8,5.4-2.5,13,3,16.9c5.4,3.8,13,2.5,16.9-3c3.8-5.4,2.5-13-3-16.9
		C567.6,225.6,560,226.9,556.2,232.3z"/>
	<path id="XMLID_10322_" class="st1" d="M589.3,418.7c-3.8,5.4-2.5,13,3,16.9c5.5,3.9,13,2.5,16.9-3c3.8-5.4,2.5-13-3-16.9
		C600.7,411.9,593.2,413.2,589.3,418.7z"/>
	<path id="XMLID_10323_" class="st1" d="M389.7,279.3c3.8-5.4,2.5-13-3-16.9c-5.4-3.8-13-2.5-16.9,3c-3.8,5.4-2.5,13,3,16.9
		C378.4,286.1,385.9,284.8,389.7,279.3z"/>
	<path id="XMLID_10324_" class="st1" d="M510.8,468.8c-6.5,1.2-11,7.4-9.8,14c1.2,6.5,7.4,11,14,9.8c6.5-1.2,11-7.4,9.8-14
		C523.7,472,517.4,467.7,510.8,468.8z"/>
	<path id="XMLID_10325_" class="st1" d="M468.2,229.1c6.5-1.2,11-7.4,9.8-14c-1.2-6.5-7.4-11-14-9.8c-6.5,1.2-11,7.4-9.8,14
		S461.7,230.3,468.2,229.1z"/>
	<path id="XMLID_10326_" class="st1" d="M609.4,327.7c1.2,6.5,7.4,11,14,9.8c6.5-1.2,11-7.4,9.8-14c-1.2-6.5-7.4-11-14-9.8
		C612.6,314.9,608.2,321.2,609.4,327.7z"/>
	<path id="XMLID_10327_" class="st1" d="M369.6,370.3c-1.2-6.5-7.4-11-14-9.8c-6.5,1.2-11,7.4-9.8,14c1.2,6.5,7.4,11,14,9.8
		C366.5,383.2,370.8,376.9,369.6,370.3z"/>
	<path id="XMLID_10330_" class="st1" d="M315.5,365l-17.8,3.2l5.4,29.6l17.8-3.2c3.3,12.2,8,24.2,14,35.7l-15.3,9.8l16.2,25.4
		l15.3-9.8c8,10.3,16.9,19.6,26.6,27.7l-10.3,14.8l24.7,17.2l10.3-14.9c11.2,6.4,23,11.5,35.1,15.3l-3.9,17.7l29.5,6.5l3.9-17.7
		c12.7,1.7,25.5,1.9,38.4,0.8l3.2,17.8l29.6-5.4l-3.2-17.8c12.2-3.3,24.2-8,35.7-14l9.8,15.3l25.4-16.2l-9.8-15.3
		c10.3-8,19.6-16.9,27.7-26.6l14.8,10.3l17.2-24.7l-14.7-10.3c6.4-11.2,11.5-23,15.3-35.1l17.7,3.9l6.5-29.5l-17.8-3.9
		c1.7-12.7,1.9-25.5,0.8-38.4l17.8-3.2l-5.4-29.6l-17.8,3.2c-3.3-12.2-8-24.2-14-35.7l15.3-9.8l-16.2-25.4l-15.3,9.8
		c-8-10.3-16.9-19.6-26.6-27.7l10.3-14.8L587,182.8l-10.3,14.9c-11.2-6.4-23-11.5-35.1-15.3l3.9-17.7l-29.5-6.5l-3.9,17.7
		c-12.7-1.7-25.5-1.9-38.4-0.8l-3.2-17.8l-29.6,5.4l3.2,17.8c-12.2,3.3-24.2,8-35.7,14l-9.8-15.3l-25.4,16.2l9.8,15.3
		c-10.3,8-19.6,16.9-27.7,26.6L340.5,227l-17.2,24.7l14.9,10.3c-6.4,11.2-11.5,23-15.3,35.1l-17.7-3.9l-6.5,29.5l17.7,3.9
		C314.6,339.3,314.3,352.1,315.5,365z M405.8,218.6c72.1-46.3,167.9-25.3,214.2,46.8c46.3,72.1,25.3,167.9-46.8,214.2
		S405.2,504.9,359,432.8C312.8,360.6,333.8,264.7,405.8,218.6z"/>
</g>
<path id="XMLID_10421_" class="st1" d="M30.6,283.7l-1.2,5.5l10.9,2.4l1.2-5.5c4,0.1,8.1-0.6,12.1-2.1l3.1,4.8l9.4-6l-3.1-4.8
	c3.1-2.9,5.4-6.3,7-10l5.5,1.2l2.4-10.9l-5.5-1.2c0.1-4-0.6-8.1-2.1-12.1l4.8-3.1l-6-9.4l-4.8,3.1c-2.9-3.1-6.3-5.4-10-7l1.2-5.5
	l-10.9-2.4l-1.2,5.5c-4-0.1-8.1,0.6-12.1,2.1l-3.1-4.8l-9.4,6l3.1,4.8c-3.1,2.9-5.4,6.3-7,10l-5.5-1.2L6.9,254l5.5,1.2
	c-0.1,4,0.6,8.1,2.1,12.1l-4.8,3.1l6,9.4l4.8-3.1C23.4,279.7,26.8,282.1,30.6,283.7z M66.4,258.1c1.7,0.4,2.8,2,2.4,3.8
	c-0.4,1.7-2,2.8-3.8,2.4c-1.7-0.4-2.8-2-2.4-3.8C63,258.8,64.7,257.7,66.4,258.1z M65.1,241.4c0.9,1.5,0.6,3.4-0.9,4.3
	c-1.5,0.9-3.4,0.6-4.3-0.9c-0.9-1.5-0.6-3.4,0.9-4.3C62.3,239.5,64.2,240,65.1,241.4z M44.3,232c0.4-1.7,2-2.8,3.8-2.4
	s2.8,2,2.4,3.8c-0.4,1.7-2,2.8-3.8,2.4S43.9,233.7,44.3,232z M26.6,237.6c-0.9-1.5-0.6-3.4,0.9-4.3c1.5-0.9,3.4-0.6,4.3,0.9
	c0.9,1.5,0.6,3.4-0.9,4.3C29.6,239.5,27.6,239,26.6,237.6z M18.1,254c-1.7-0.4-2.8-2-2.4-3.8c0.4-1.7,2-2.8,3.8-2.4
	c1.7,0.4,2.8,2,2.4,3.8C21.6,253.3,19.9,254.4,18.1,254z M19.4,270.7c-0.9-1.5-0.6-3.4,0.9-4.3c1.5-0.9,3.4-0.6,4.3,0.9
	c0.9,1.5,0.6,3.4-0.9,4.3C22.3,272.6,20.3,272.2,19.4,270.7z M27,265.8c-5.4-8.4-2.9-19.6,5.4-25c8.4-5.4,19.6-2.9,25,5.4
	c5.4,8.4,2.9,19.6-5.4,25C43.7,276.7,32.5,274.3,27,265.8z M53.5,273.6c1.5-0.9,3.4-0.6,4.3,0.9c0.9,1.5,0.6,3.4-0.9,4.3
	c-1.5,0.9-3.4,0.6-4.3-0.9C51.6,276.5,52,274.6,53.5,273.6z M37.8,276.4c1.7,0.4,2.8,2,2.4,3.8c-0.4,1.7-2,2.8-3.8,2.4
	c-1.7-0.4-2.8-2-2.4-3.8S36.1,276.1,37.8,276.4z"/>
<g>
	<path id="XMLID_10472_" class="st2" d="M202.5,157.2l16.4-3.2c1.1,2,2.4,4,3.9,5.9l-9.3,13.9l21.7,14.5l9.3-13.9
		c2.3,0.6,4.6,1.1,6.9,1.3l3.2,16.4l25.5-5l-3.2-16.4c2-1.1,4-2.4,5.9-3.9l13.9,9.3l14.5-21.7l-13.9-9.3c0.6-2.3,1.1-4.6,1.3-6.9
		l16.4-3.2l-5-25.5l-16.4,3.2c-1.1-2-2.4-4-3.9-5.9l9.3-13.9l-21.8-14.5L268,92.1c-2.3-0.6-4.6-1.1-6.9-1.3l-3.2-16.4l-25.5,5
		l3.2,16.4c-2,1.1-4,2.4-5.9,3.9l-13.9-9.3l-14.5,21.7l13.9,9.3c-0.6,2.3-1.1,4.6-1.3,6.9l-16.4,3.2L202.5,157.2z M265.8,118.9
		c7.9,5.3,10,16,4.7,23.9c-5.3,7.9-16,10-23.9,4.7c-7.9-5.3-10-16-4.7-23.9C247.2,115.8,257.9,113.7,265.8,118.9z"/>
	<path id="XMLID_10475_" class="st2" d="M139.1,177.5L157,174c5.4,13,13.3,25.1,23.6,35.4l-10.2,15.1l34.2,22.9l10.2-15.1
		c13.5,5.7,27.7,8.4,41.8,8.3l3.5,17.9l40.3-8l-3.5-17.9c13-5.4,25.1-13.3,35.4-23.6l15.1,10.2l22.9-34.2l-15.1-10.2
		c5.7-13.5,8.4-27.7,8.3-41.8l17.9-3.5l-8-40.3l-17.9,3.5c-5.4-13-13.3-25.1-23.6-35.4L342,41.9l-34.2-22.9l-10.2,15.1
		c-13.5-5.7-27.7-8.4-41.8-8.3l-3.5-17.9l-40.3,8l3.5,17.9c-13,5.4-25.1,13.3-35.4,23.6L165,47.5l-22.9,34.2l15.1,10.2
		c-5.7,13.5-8.4,27.7-8.3,41.8l-17.9,3.5L139.1,177.5z M191.4,89.9c23.9-35.8,72.3-45.4,108.1-21.5s45.4,72.3,21.5,108.1
		c-23.9,35.8-72.3,45.4-108.1,21.5C177.2,174.1,167.6,125.7,191.4,89.9z"/>
</g>
<path id="XMLID_10682_" class="st2" d="M74.8,221.9h10.5c0.5,1.4,1,2.8,1.7,4.1l-7.5,7.4L91,245l7.5-7.4c1.3,0.7,2.7,1.3,4.1,1.7
	v10.5l16.4,0.1v-10.5c1.4-0.5,2.8-1,4.1-1.7l7.4,7.5l11.7-11.6l-7.4-7.5c0.7-1.3,1.3-2.7,1.7-4.1H147l0.1-16.4h-10.5
	c-0.5-1.4-1-2.8-1.7-4.1l7.5-7.4l-11.6-11.7l-7.5,7.4c-1.3-0.7-2.7-1.3-4.1-1.7v-10.5l-16.4-0.1v10.5c-1.4,0.5-2.8,1-4.1,1.7
	l-7.4-7.5l-11.7,11.6l7.4,7.5c-0.7,1.3-1.3,2.7-1.7,4.1H74.9L74.8,221.9z M118.7,206.1c4.3,4.3,4.2,11.1-0.1,15.4
	c-4.3,4.3-11.1,4.2-15.4-0.1c-4.3-4.3-4.2-11.1,0.1-15.4C107.6,201.8,114.4,201.8,118.7,206.1z"/>
<path id="XMLID_10837_" class="st1" d="M706.9,400.7l-15.9,10.7l19.5,28.8l15.9-10.7c8.4,8.3,18.5,15.1,29.8,19.6l-3.6,18.7
	l34.1,6.5l3.6-18.7c12.2,0,24.2-2.5,35-7.2l10.7,15.9l28.8-19.5l-10.7-15.9c8.3-8.4,15.1-18.5,19.6-29.8l18.7,3.6l6.5-34.1
	l-18.7-3.6c0-12.2-2.5-24.2-7.2-35l15.9-10.7l-19.5-28.8l-15.9,10.7c-8.4-8.3-18.5-15.1-29.8-19.6l3.6-18.7l-34.1-6.5l-3.6,18.7
	c-12.2,0-24.2,2.5-35,7.2L744,266.5L715.2,286l10.7,15.9c-8.3,8.4-15.1,18.5-19.6,29.8l-18.7-3.6l-6.5,34.1l18.7,3.6
	C699.7,378.1,702.3,389.9,706.9,400.7z M765.8,326.1c0.8-3.8,4.4-6.2,8.1-5.4l47.8,9.3c3.8,0.8,6.2,4.4,5.4,8.1
	c-0.8,3.8-4.4,6.2-8.1,5.4l-47.8-9.3C767.6,333.4,765.2,329.8,765.8,326.1z M752.8,393.2c0.8-3.8,4.4-6.2,8.1-5.4l47.8,9.3
	c3.8,0.8,6.2,4.4,5.4,8.1c-0.8,3.8-4.4,6.2-8.1,5.4l-47.8-9.3C754.6,400.5,752.1,396.8,752.8,393.2z"/>
<path id="XMLID_10851_" class="st3" d="M114.3,258.6l4.3,14.4c-4.7,2.1-9.3,4.6-13.8,7.3l-9.5-11.7l-21.9,18l9.5,11.7
	c-3.6,3.9-6.9,7.9-9.9,12.1l-13.3-7.1l-13.4,25l13.3,7.1c-1.9,4.9-3.4,9.9-4.5,15l-15-1.5L37.3,377l15,1.5
	c0.2,5.2,0.6,10.4,1.5,15.5l-14.4,4.3l8.2,27.2l14.4-4.3c2.1,4.7,4.6,9.3,7.3,13.8l-11.7,9.5l18,21.9l11.7-9.5
	c3.9,3.6,7.9,6.9,12.1,9.9l-7.1,13.3l25,13.4l7.1-13.3c4.9,1.9,9.9,3.4,15,4.5l-1.5,15l28.2,2.8l1.5-15c5.2-0.2,10.4-0.6,15.5-1.5
	l4.3,14.4l27.2-8.2l-4.3-14.4c4.7-2.1,9.3-4.6,13.8-7.3l9.5,11.7l21.9-18l-9.5-11.7c3.6-3.9,6.9-7.9,9.9-12.1l13.3,7.1l13.4-25
	l-13.3-7.1c1.9-4.9,3.4-9.9,4.5-15l15,1.5l2.8-28.2l-15-1.5c-0.2-5.2-0.6-10.4-1.5-15.5l14.4-4.3l-8.2-27.2l-14.4,4.3
	c-2.1-4.7-4.6-9.3-7.3-13.8l11.7-9.5l-18-21.9l-11.7,9.5c-3.9-3.6-7.9-6.9-12.1-9.9l7.1-13.3l-25-13.4l-7.1,13.3
	c-4.9-1.9-9.9-3.4-15-4.5l1.5-15l-28.2-2.8l-1.5,15c-5.2,0.2-10.4,0.6-15.5,1.5l-4.3-14.4L114.3,258.6z M196.5,462.3
	c0.9,2.9-0.8,5.9-3.6,6.8c-2.9,0.9-5.9-0.8-6.8-3.6c-0.9-2.9,0.8-5.9,3.6-6.8C192.5,457.8,195.6,459.4,196.5,462.3z M155.9,462
	c3,0.3,5.2,3,4.9,6c-0.3,3-3,5.2-6,4.9c-3-0.3-5.2-3-4.9-6C150.2,463.9,152.9,461.7,155.9,462z M227.2,443.5
	c1.9,2.4,1.6,5.8-0.8,7.6c-2.4,1.9-5.8,1.6-7.6-0.8c-1.9-2.4-1.6-5.8,0.8-7.6C221.9,440.8,225.3,441.1,227.2,443.5z M123.5,452.1
	c2.7,1.4,3.6,4.7,2.2,7.4c-1.4,2.7-4.7,3.6-7.4,2.2c-2.7-1.4-3.6-4.7-2.2-7.4C117.5,451.7,120.8,450.6,123.5,452.1z M248.5,414.3
	c2.7,1.4,3.6,4.7,2.2,7.4c-1.4,2.7-4.7,3.6-7.4,2.2c-2.7-1.4-3.6-4.7-2.2-7.4C242.5,413.8,245.8,412.9,248.5,414.3z M97.3,430.5
	c1.9,2.4,1.6,5.8-0.8,7.6c-2.4,1.9-5.8,1.6-7.6-0.8c-1.9-2.4-1.6-5.8,0.8-7.6C92,427.9,95.4,428.3,97.3,430.5z M256.9,379.2
	c3,0.3,5.2,3,4.9,6c-0.3,3-3,5.2-6,4.9c-3-0.3-5.2-3-4.9-6C251.2,381.1,253.9,378.9,256.9,379.2z M81.3,400.7
	c0.9,2.9-0.8,5.9-3.6,6.8c-2.9,0.9-5.9-0.8-6.8-3.6c-0.9-2.9,0.8-5.9,3.6-6.8C77.5,396.2,80.5,397.8,81.3,400.7z M258.1,347.2
	c0.9,2.9-0.8,5.9-3.6,6.8c-2.9,0.9-5.9-0.8-6.8-3.6c-0.9-2.9,0.8-5.9,3.6-6.8C254.2,342.7,257.2,344.3,258.1,347.2z M73.1,361
	c3,0.3,5.2,3,4.9,6c-0.3,3-3,5.2-6,4.9c-3-0.3-5.2-3-4.9-6C67.5,362.9,70.1,360.7,73.1,361z M240.1,313.5c1.9,2.4,1.6,5.8-0.8,7.6
	c-2.4,1.9-5.8,1.6-7.6-0.8c-1.9-2.4-1.6-5.8,0.8-7.6C234.8,310.9,238.2,311.2,240.1,313.5z M85.7,327.2c2.7,1.4,3.6,4.7,2.2,7.4
	c-1.4,2.7-4.7,3.6-7.4,2.2c-2.7-1.4-3.6-4.7-2.2-7.4C79.8,326.8,83,325.7,85.7,327.2z M210.7,289.3c2.7,1.4,3.6,4.7,2.2,7.4
	s-4.7,3.6-7.4,2.2c-2.7-1.4-3.6-4.7-2.2-7.4C204.7,288.9,208,287.9,210.7,289.3z M110.2,300.7c1.9,2.4,1.6,5.8-0.8,7.6
	c-2.4,1.9-5.8,1.6-7.6-0.8c-1.9-2.4-1.6-5.8,0.8-7.6C104.8,298,108.3,298.3,110.2,300.7z M174.2,278.2c3,0.3,5.2,3,4.9,6
	c-0.3,3-3,5.2-6,4.9c-3-0.3-5.2-3-4.9-6C168.5,280.1,171.2,278,174.2,278.2z M143,285.6c0.9,2.9-0.8,5.9-3.6,6.8
	c-2.9,0.9-5.9-0.8-6.8-3.6c-0.9-2.9,0.8-5.9,3.6-6.8C139,281.1,142.1,282.7,143,285.6z"/>
<g>
	<path id="XMLID_10875_" class="st3" d="M699.9,109l-1.6,19.7c-4.6,0.9-9,2.4-13.1,4.4l-7-8.2L658.1,142l7,8.2
		c-2.6,3.8-4.9,7.7-6.5,12.2l-19.7-1.6l-2.4,29.9l19.7,1.6c0.9,4.6,2.4,9,4.4,13.1l-8.2,7l17.1,20.2l8.2-7c3.8,2.6,7.7,4.9,12.2,6.5
		l-1.6,19.7l29.9,2.4l1.6-19.7c4.6-0.9,9-2.4,13.1-4.4l7,8.2l20.2-17.1l-7-8.2c2.6-3.8,4.9-7.7,6.5-12.2l19.7,1.6l2.4-29.9
		l-19.7-1.6c-0.9-4.6-2.4-9-4.4-13.1l8.2-7l-17.1-20.2l-8.2,7c-3.8-2.6-7.7-4.9-12.2-6.5l1.6-19.7L699.9,109z M741.9,184.2
		c-1.5,18.1-17.4,31.7-35.6,30.2c-18.1-1.5-31.7-17.4-30.2-35.6c1.5-18.1,17.4-31.7,35.6-30.2C729.9,150.1,743.3,166.1,741.9,184.2z
		"/>
	<path id="XMLID_10876_" class="st3" d="M693,180.2c-0.7,8.9,5.9,16.6,14.8,17.4c8.9,0.7,16.6-5.9,17.4-14.8
		c0.7-8.9-5.9-16.6-14.8-17.4C701.4,164.7,693.7,171.3,693,180.2z"/>
</g>
<path id="XMLID_1_" class="st2" d="M930.4,490.6l-2.1,9.8l19.4,4.2l2.1-9.8c7.2,0.1,14.5-1,21.5-3.8l5.5,8.6l16.7-10.7l-5.5-8.6
	c5.5-5.2,9.7-11.2,12.5-17.9l9.8,2.1l4.2-19.4l-9.8-2.1c0.1-7.2-1-14.5-3.8-21.5l8.6-5.5l-10.7-16.7l-8.6,5.5
	c-5.2-5.5-11.2-9.7-17.9-12.5l2.1-9.8l-19.4-4.2l-2.1,9.8c-7.2-0.1-14.5,1-21.5,3.8l-5.5-8.6L909.3,394l5.5,8.6
	c-5.5,5.2-9.7,11.2-12.5,17.9l-9.8-2.1l-4.2,19.4l9.8,2.1c-0.1,7.2,1,14.5,3.8,21.5l-8.6,5.5l10.7,16.7l8.6-5.5
	C917.6,483.6,923.7,487.8,930.4,490.6z M994.2,445c3.1,0.7,4.9,3.7,4.4,6.7c-0.7,3.1-3.7,4.9-6.7,4.4c-3.1-0.7-4.9-3.7-4.4-6.7
	C988.2,446.3,991.3,444.3,994.2,445z M992,415.2c1.7,2.7,1,6-1.7,7.7c-2.7,1.7-6,1-7.7-1.7c-1.7-2.7-1-6,1.7-7.7
	C986.9,411.9,990.3,412.7,992,415.2z M954.9,398.4c0.7-3.1,3.7-4.9,6.7-4.4c3.1,0.6,4.9,3.7,4.4,6.7c-0.7,3.1-3.7,4.9-6.7,4.4
	C956.1,404.6,954.2,401.5,954.9,398.4z M923.4,408.5c-1.7-2.7-1-6,1.7-7.7c2.7-1.7,6-1,7.7,1.7c1.7,2.7,1,6-1.7,7.7
	C928.6,411.9,925.1,411,923.4,408.5z M908.2,437.7c-3.1-0.7-4.9-3.7-4.4-6.7c0.7-3.1,3.7-4.9,6.7-4.4c3.1,0.7,4.9,3.7,4.4,6.7
	C914.4,436.5,911.3,438.4,908.2,437.7z M910.4,467.5c-1.7-2.7-1-6,1.7-7.7c2.7-1.7,6-1,7.7,1.7c1.7,2.7,1,6-1.7,7.7
	C915.6,470.9,912.1,470.2,910.4,467.5z M924.1,458.8c-9.7-15-5.2-35,9.7-44.6c15-9.7,35-5.2,44.6,9.7c9.7,15,5.2,35-9.7,44.6
	C953.7,478.2,933.8,473.9,924.1,458.8z M971.3,472.7c2.7-1.7,6-1,7.7,1.7c1.7,2.7,1,6-1.7,7.7c-2.7,1.7-6,1-7.7-1.7
	C967.9,477.8,968.7,474.4,971.3,472.7z M943.3,477.7c3.1,0.7,4.9,3.7,4.4,6.7c-0.7,3.1-3.7,4.9-6.7,4.4c-3.1-0.7-4.9-3.7-4.4-6.7
	C937.2,478.9,940.3,477.1,943.3,477.7z"/>
</svg>
