<?xml version="1.0" encoding="utf-8"?>
<!-- Generator: Adobe Illustrator 24.1.2, SVG Export Plug-In . SVG Version: 6.00 Build 0)  -->
<svg version="1.1" id="Layer_1" xmlns="http://www.w3.org/2000/svg" xmlns:xlink="http://www.w3.org/1999/xlink" x="0px" y="0px"
	 viewBox="0 0 345 24" style="enable-background:new 0 0 345 24;" xml:space="preserve">
<style type="text/css">
	.st0{fill:none;stroke:#89C459;stroke-miterlimit:10;}
</style>
<path class="st0" d="M342.74,2.75V5c0,4.9-3.97,8.88-8.88,8.88H182.74l-10,7l-10-7H11.61c-4.9,0-8.88-3.97-8.88-8.88V2.75"/>
</svg>
