<?xml version="1.0" encoding="utf-8"?>
<!-- Generator: Adobe Illustrator 24.1.2, SVG Export Plug-In . SVG Version: 6.00 Build 0)  -->
<svg version="1.1" id="Layer_1" xmlns="http://www.w3.org/2000/svg" xmlns:xlink="http://www.w3.org/1999/xlink" x="0px" y="0px"
	 viewBox="0 0 173 296" style="enable-background:new 0 0 173 296;" xml:space="preserve">
<style type="text/css">
	.st0{fill:url(#SVGID_1_);}
	.st1{fill:#333333;}
	.st2{fill:url(#SVGID_2_);}
	.st3{fill:#E62E2E;}
	.st4{opacity:0.2;}
	.st5{opacity:0.5;fill:#FFFFFF;}
	.st6{fill:#E56D30;}
	.st7{fill:#E5E530;}
	.st8{fill:#AFE233;}
	.st9{fill:#33E25C;}
	.st10{fill:none;stroke:#333333;stroke-width:2;stroke-linecap:round;stroke-miterlimit:10;}
	.st11{fill:#808080;}
</style>
<linearGradient id="SVGID_1_" gradientUnits="userSpaceOnUse" x1="35" y1="286" x2="35" y2="245">
	<stop  offset="0" style="stop-color:#FFFFFF"/>
	<stop  offset="1" style="stop-color:#000000"/>
</linearGradient>
<rect x="24" y="245" class="st0" width="22" height="41"/>
<g>
	<path d="M79.2,46.4h-4.3v-1.1h1.4v-8.7h-1.4v-1.1h4.3v1.1h-1.4v8.7h1.4V46.4z"/>
	<path d="M88.4,46.4H87v-4.7c0-0.4,0-0.7-0.1-1.1c0-0.3-0.1-0.6-0.2-0.8c-0.1-0.2-0.3-0.4-0.5-0.5c-0.2-0.1-0.5-0.1-0.9-0.1
		c-0.4,0-0.8,0.1-1.2,0.3s-0.8,0.4-1.2,0.7v6.1h-1.4v-8.2h1.4v0.9c0.4-0.4,0.9-0.6,1.3-0.8s0.9-0.3,1.4-0.3c0.9,0,1.6,0.3,2,0.8
		s0.7,1.3,0.7,2.3V46.4z"/>
	<path d="M97.4,46.4H96v-0.9c-0.1,0.1-0.3,0.2-0.5,0.3c-0.2,0.1-0.4,0.3-0.6,0.4c-0.2,0.1-0.5,0.2-0.8,0.3s-0.6,0.1-1,0.1
		c-0.7,0-1.4-0.2-1.9-0.7c-0.5-0.5-0.8-1.1-0.8-1.9c0-0.6,0.1-1.1,0.4-1.5c0.3-0.4,0.6-0.7,1.1-0.9c0.5-0.2,1.1-0.4,1.8-0.4
		s1.4-0.1,2.2-0.2v-0.2c0-0.3-0.1-0.6-0.2-0.8c-0.1-0.2-0.3-0.4-0.5-0.5c-0.2-0.1-0.4-0.2-0.7-0.2s-0.6-0.1-0.9-0.1
		c-0.4,0-0.8,0-1.2,0.1c-0.4,0.1-0.9,0.2-1.4,0.4h-0.1v-1.4c0.3-0.1,0.7-0.2,1.2-0.2s1-0.1,1.5-0.1c0.6,0,1.1,0,1.5,0.1
		c0.4,0.1,0.8,0.3,1.1,0.5c0.3,0.2,0.5,0.5,0.7,0.9s0.2,0.8,0.2,1.3V46.4z M96,44.4v-2.3c-0.4,0-0.9,0.1-1.5,0.1
		c-0.6,0-1,0.1-1.4,0.2c-0.4,0.1-0.7,0.3-1,0.5c-0.2,0.2-0.4,0.6-0.4,1c0,0.5,0.1,0.8,0.4,1.1c0.3,0.2,0.7,0.4,1.3,0.4
		c0.5,0,0.9-0.1,1.3-0.3C95.3,44.9,95.7,44.7,96,44.4z"/>
	<path d="M106.1,45.9c-0.5,0.2-0.9,0.4-1.3,0.5c-0.4,0.1-0.9,0.2-1.3,0.2c-0.6,0-1.1-0.1-1.6-0.3c-0.5-0.2-0.9-0.4-1.3-0.8
		c-0.4-0.4-0.6-0.8-0.8-1.3c-0.2-0.5-0.3-1.2-0.3-1.9c0-1.3,0.4-2.4,1.1-3.1c0.7-0.8,1.7-1.1,2.9-1.1c0.5,0,0.9,0.1,1.4,0.2
		c0.5,0.1,0.9,0.3,1.2,0.5v1.5H106c-0.4-0.3-0.9-0.6-1.3-0.8c-0.4-0.2-0.9-0.3-1.3-0.3c-0.8,0-1.4,0.3-1.8,0.8
		c-0.5,0.5-0.7,1.3-0.7,2.3c0,1,0.2,1.7,0.7,2.3c0.4,0.5,1.1,0.8,1.9,0.8c0.3,0,0.6,0,0.8-0.1c0.3-0.1,0.5-0.2,0.8-0.3
		c0.2-0.1,0.4-0.2,0.6-0.3c0.2-0.1,0.3-0.2,0.4-0.3h0.1V45.9z"/>
	<path d="M114.7,42.5h-6c0,0.5,0.1,0.9,0.2,1.3c0.2,0.4,0.4,0.7,0.6,0.9c0.3,0.2,0.6,0.4,0.9,0.5c0.3,0.1,0.7,0.2,1.2,0.2
		c0.6,0,1.1-0.1,1.7-0.3c0.6-0.2,1-0.4,1.2-0.7h0.1v1.5c-0.5,0.2-0.9,0.4-1.4,0.5s-1,0.2-1.5,0.2c-1.4,0-2.4-0.4-3.2-1.1
		c-0.8-0.7-1.1-1.8-1.1-3.1c0-1.3,0.4-2.4,1.1-3.2c0.7-0.8,1.7-1.2,2.9-1.2c1.1,0,2,0.3,2.6,1c0.6,0.6,0.9,1.6,0.9,2.7V42.5z
		 M113.3,41.4c0-0.7-0.2-1.3-0.5-1.7c-0.4-0.4-0.9-0.6-1.6-0.6c-0.7,0-1.3,0.2-1.8,0.7c-0.4,0.4-0.7,1-0.7,1.6H113.3z"/>
	<path d="M124,42.2c0,0.7-0.1,1.3-0.3,1.8c-0.2,0.5-0.5,1-0.8,1.4c-0.3,0.4-0.7,0.6-1.1,0.8c-0.4,0.2-0.9,0.3-1.4,0.3
		c-0.4,0-0.8,0-1.2-0.1c-0.3-0.1-0.7-0.2-1.1-0.4v3.4h-1.4V38.2h1.4v0.9c0.4-0.3,0.8-0.6,1.2-0.8c0.5-0.2,0.9-0.3,1.5-0.3
		c1,0,1.8,0.4,2.3,1.1C123.7,39.9,124,40.9,124,42.2z M122.5,42.3c0-1-0.2-1.7-0.5-2.2c-0.3-0.5-0.9-0.7-1.6-0.7
		c-0.4,0-0.8,0.1-1.2,0.3s-0.8,0.4-1.1,0.7v4.6c0.4,0.2,0.7,0.3,1,0.4c0.3,0.1,0.6,0.1,1,0.1c0.8,0,1.4-0.3,1.8-0.8
		S122.5,43.3,122.5,42.3z"/>
	<path d="M130.4,46.3c-0.3,0.1-0.5,0.1-0.8,0.2c-0.3,0-0.6,0.1-0.8,0.1c-0.8,0-1.5-0.2-1.9-0.7s-0.7-1.2-0.7-2.2v-4.4h-0.9v-1.2h0.9
		v-2.4h1.4v2.4h2.8v1.2h-2.8v3.7c0,0.4,0,0.8,0,1c0,0.2,0.1,0.5,0.2,0.7c0.1,0.2,0.3,0.3,0.4,0.4c0.2,0.1,0.5,0.1,0.9,0.1
		c0.2,0,0.5,0,0.7-0.1c0.2-0.1,0.4-0.1,0.5-0.2h0.1V46.3z"/>
	<path d="M138.4,46.4H137v-0.9c-0.1,0.1-0.3,0.2-0.5,0.3c-0.2,0.1-0.4,0.3-0.6,0.4c-0.2,0.1-0.5,0.2-0.8,0.3s-0.6,0.1-1,0.1
		c-0.7,0-1.4-0.2-1.9-0.7c-0.5-0.5-0.8-1.1-0.8-1.9c0-0.6,0.1-1.1,0.4-1.5c0.3-0.4,0.6-0.7,1.1-0.9c0.5-0.2,1.1-0.4,1.8-0.4
		s1.4-0.1,2.2-0.2v-0.2c0-0.3-0.1-0.6-0.2-0.8c-0.1-0.2-0.3-0.4-0.5-0.5c-0.2-0.1-0.4-0.2-0.7-0.2s-0.6-0.1-0.9-0.1
		c-0.4,0-0.8,0-1.2,0.1c-0.4,0.1-0.9,0.2-1.4,0.4h-0.1v-1.4c0.3-0.1,0.7-0.2,1.2-0.2s1-0.1,1.5-0.1c0.6,0,1.1,0,1.5,0.1
		c0.4,0.1,0.8,0.3,1.1,0.5c0.3,0.2,0.5,0.5,0.7,0.9s0.2,0.8,0.2,1.3V46.4z M137,44.4v-2.3c-0.4,0-0.9,0.1-1.5,0.1
		c-0.6,0-1,0.1-1.4,0.2c-0.4,0.1-0.7,0.3-1,0.5c-0.2,0.2-0.4,0.6-0.4,1c0,0.5,0.1,0.8,0.4,1.1c0.3,0.2,0.7,0.4,1.3,0.4
		c0.5,0,0.9-0.1,1.3-0.3C136.3,44.9,136.7,44.7,137,44.4z"/>
	<path d="M148.2,42.3c0,0.7-0.1,1.3-0.3,1.8c-0.2,0.5-0.5,1-0.8,1.4c-0.3,0.4-0.7,0.7-1.1,0.9c-0.4,0.2-0.9,0.3-1.4,0.3
		c-0.5,0-0.9-0.1-1.2-0.2c-0.3-0.1-0.7-0.3-1-0.4l-0.1,0.4H141V35h1.4v4.1c0.4-0.3,0.8-0.6,1.2-0.8c0.4-0.2,0.9-0.3,1.5-0.3
		c1,0,1.7,0.4,2.3,1.1C148,39.9,148.2,40.9,148.2,42.3z M146.8,42.3c0-1-0.2-1.7-0.5-2.2c-0.3-0.5-0.8-0.8-1.6-0.8
		c-0.4,0-0.8,0.1-1.2,0.3s-0.8,0.4-1.1,0.7v4.7c0.4,0.2,0.7,0.3,1,0.4c0.3,0.1,0.6,0.1,1,0.1c0.8,0,1.4-0.3,1.8-0.8
		C146.6,44.2,146.8,43.4,146.8,42.3z"/>
	<path d="M151.8,46.4h-1.4V35h1.4V46.4z"/>
	<path d="M161.3,42.5h-6c0,0.5,0.1,0.9,0.2,1.3c0.2,0.4,0.4,0.7,0.6,0.9c0.3,0.2,0.6,0.4,0.9,0.5c0.3,0.1,0.7,0.2,1.2,0.2
		c0.6,0,1.1-0.1,1.7-0.3c0.6-0.2,1-0.4,1.2-0.7h0.1v1.5c-0.5,0.2-0.9,0.4-1.4,0.5s-1,0.2-1.5,0.2c-1.4,0-2.4-0.4-3.2-1.1
		c-0.8-0.7-1.1-1.8-1.1-3.1c0-1.3,0.4-2.4,1.1-3.2c0.7-0.8,1.7-1.2,2.9-1.2c1.1,0,2,0.3,2.6,1c0.6,0.6,0.9,1.6,0.9,2.7V42.5z
		 M160,41.4c0-0.7-0.2-1.3-0.5-1.7c-0.4-0.4-0.9-0.6-1.6-0.6c-0.7,0-1.3,0.2-1.8,0.7c-0.4,0.4-0.7,1-0.7,1.6H160z"/>
	<path d="M82.2,91.4h-6.9V80.5h1.5v9.6h5.4V91.4z"/>
	<path d="M85,81.9h-1.6v-1.4H85V81.9z M84.9,91.4h-1.4v-8.2h1.4V91.4z"/>
	<path d="M99.6,91.4h-1.4v-4.7c0-0.4,0-0.7,0-1c0-0.3-0.1-0.6-0.2-0.8c-0.1-0.2-0.3-0.4-0.5-0.5s-0.5-0.2-0.9-0.2
		c-0.4,0-0.8,0.1-1.2,0.3c-0.4,0.2-0.8,0.4-1.2,0.7c0,0.1,0,0.2,0,0.4s0,0.3,0,0.4v5.2h-1.4v-4.7c0-0.4,0-0.7,0-1
		c0-0.3-0.1-0.6-0.2-0.8c-0.1-0.2-0.3-0.4-0.5-0.5s-0.5-0.2-0.9-0.2c-0.4,0-0.8,0.1-1.1,0.3c-0.4,0.2-0.8,0.4-1.1,0.7v6.1h-1.4v-8.2
		H89v0.9c0.4-0.4,0.9-0.6,1.3-0.8c0.4-0.2,0.9-0.3,1.4-0.3c0.6,0,1,0.1,1.4,0.4c0.4,0.2,0.7,0.6,0.9,1c0.6-0.5,1.1-0.8,1.5-1
		s1-0.3,1.5-0.3c0.9,0,1.6,0.3,2,0.8c0.4,0.5,0.6,1.3,0.6,2.3V91.4z"/>
	<path d="M103.7,81.9h-1.6v-1.4h1.6V81.9z M103.6,91.4h-1.4v-8.2h1.4V91.4z"/>
	<path d="M110.6,91.3c-0.3,0.1-0.5,0.1-0.8,0.2c-0.3,0-0.6,0.1-0.8,0.1c-0.8,0-1.5-0.2-1.9-0.7s-0.7-1.2-0.7-2.2v-4.4h-0.9v-1.2h0.9
		v-2.4h1.4v2.4h2.8v1.2h-2.8v3.7c0,0.4,0,0.8,0,1c0,0.2,0.1,0.5,0.2,0.7c0.1,0.2,0.3,0.3,0.4,0.4c0.2,0.1,0.5,0.1,0.9,0.1
		c0.2,0,0.5,0,0.7-0.1c0.2-0.1,0.4-0.1,0.5-0.2h0.1V91.3z"/>
	<path d="M118.6,91.4h-1.4v-0.9c-0.1,0.1-0.3,0.2-0.5,0.3c-0.2,0.1-0.4,0.3-0.6,0.4c-0.2,0.1-0.5,0.2-0.8,0.3s-0.6,0.1-1,0.1
		c-0.7,0-1.4-0.2-1.9-0.7c-0.5-0.5-0.8-1.1-0.8-1.9c0-0.6,0.1-1.1,0.4-1.5c0.3-0.4,0.6-0.7,1.1-0.9c0.5-0.2,1.1-0.4,1.8-0.4
		s1.4-0.1,2.2-0.2v-0.2c0-0.3-0.1-0.6-0.2-0.8c-0.1-0.2-0.3-0.4-0.5-0.5c-0.2-0.1-0.4-0.2-0.7-0.2s-0.6-0.1-0.9-0.1
		c-0.4,0-0.8,0-1.2,0.1c-0.4,0.1-0.9,0.2-1.4,0.4h-0.1v-1.4c0.3-0.1,0.7-0.2,1.2-0.2s1-0.1,1.5-0.1c0.6,0,1.1,0,1.5,0.1
		c0.4,0.1,0.8,0.3,1.1,0.5c0.3,0.2,0.5,0.5,0.7,0.9s0.2,0.8,0.2,1.3V91.4z M117.3,89.4v-2.3c-0.4,0-0.9,0.1-1.5,0.1
		c-0.6,0-1,0.1-1.4,0.2c-0.4,0.1-0.7,0.3-1,0.5c-0.2,0.2-0.4,0.6-0.4,1c0,0.5,0.1,0.8,0.4,1.1c0.3,0.2,0.7,0.4,1.3,0.4
		c0.5,0,0.9-0.1,1.3-0.3C116.6,89.9,116.9,89.7,117.3,89.4z"/>
	<path d="M127.9,91.4h-1.4v-0.9c-0.4,0.3-0.8,0.6-1.2,0.8s-0.9,0.3-1.4,0.3c-1,0-1.8-0.4-2.3-1.1c-0.6-0.8-0.9-1.8-0.9-3.1
		c0-0.7,0.1-1.3,0.3-1.9c0.2-0.5,0.5-1,0.8-1.4c0.3-0.4,0.7-0.7,1.2-0.8c0.4-0.2,0.9-0.3,1.4-0.3c0.4,0,0.8,0,1.1,0.1s0.7,0.2,1,0.4
		V80h1.4V91.4z M126.5,89.4v-4.7c-0.4-0.2-0.7-0.3-1-0.3s-0.6-0.1-1-0.1c-0.8,0-1.4,0.3-1.8,0.8s-0.6,1.3-0.6,2.3
		c0,1,0.2,1.7,0.5,2.2c0.3,0.5,0.9,0.8,1.6,0.8c0.4,0,0.8-0.1,1.2-0.3S126.2,89.7,126.5,89.4z"/>
	<path d="M137.6,87.3c0,1.3-0.3,2.4-1,3.2c-0.7,0.8-1.6,1.2-2.7,1.2c-1.2,0-2.1-0.4-2.8-1.2c-0.7-0.8-1-1.8-1-3.2s0.3-2.4,1-3.2
		c0.7-0.8,1.6-1.2,2.8-1.2c1.1,0,2.1,0.4,2.7,1.2C137.3,84.9,137.6,86,137.6,87.3z M136.2,87.3c0-1.1-0.2-1.8-0.6-2.4
		c-0.4-0.5-1-0.8-1.7-0.8c-0.7,0-1.3,0.3-1.7,0.8c-0.4,0.5-0.6,1.3-0.6,2.4c0,1,0.2,1.8,0.6,2.3c0.4,0.5,1,0.8,1.7,0.8
		c0.7,0,1.3-0.3,1.7-0.8C136,89.1,136.2,88.4,136.2,87.3z"/>
	<path d="M85,136.4h-1.5V127l-3,6.4h-0.9l-3-6.4v9.4h-1.4v-10.9h2l2.9,6.1l2.8-6.1h2V136.4z"/>
	<path d="M94.8,132.3c0,1.3-0.3,2.4-1,3.2c-0.7,0.8-1.6,1.2-2.7,1.2c-1.2,0-2.1-0.4-2.8-1.2c-0.7-0.8-1-1.8-1-3.2s0.3-2.4,1-3.2
		c0.7-0.8,1.6-1.2,2.8-1.2c1.1,0,2.1,0.4,2.7,1.2C94.5,129.9,94.8,131,94.8,132.3z M93.4,132.3c0-1.1-0.2-1.8-0.6-2.4
		c-0.4-0.5-1-0.8-1.7-0.8c-0.7,0-1.3,0.3-1.7,0.8c-0.4,0.5-0.6,1.3-0.6,2.4c0,1,0.2,1.8,0.6,2.3c0.4,0.5,1,0.8,1.7,0.8
		c0.7,0,1.3-0.3,1.7-0.8C93.2,134.1,93.4,133.4,93.4,132.3z"/>
	<path d="M103.6,136.4h-1.4v-0.9c-0.4,0.3-0.8,0.6-1.2,0.8s-0.9,0.3-1.4,0.3c-1,0-1.8-0.4-2.3-1.1c-0.6-0.8-0.9-1.8-0.9-3.1
		c0-0.7,0.1-1.3,0.3-1.9c0.2-0.5,0.5-1,0.8-1.4c0.3-0.4,0.7-0.7,1.2-0.8c0.4-0.2,0.9-0.3,1.4-0.3c0.4,0,0.8,0,1.1,0.1s0.7,0.2,1,0.4
		V125h1.4V136.4z M102.2,134.4v-4.7c-0.4-0.2-0.7-0.3-1-0.3s-0.6-0.1-1-0.1c-0.8,0-1.4,0.3-1.8,0.8s-0.6,1.3-0.6,2.3
		c0,1,0.2,1.7,0.5,2.2c0.3,0.5,0.9,0.8,1.6,0.8c0.4,0,0.8-0.1,1.2-0.3S101.9,134.7,102.2,134.4z"/>
	<path d="M113.1,132.5h-6c0,0.5,0.1,0.9,0.2,1.3c0.2,0.4,0.4,0.7,0.6,0.9c0.3,0.2,0.6,0.4,0.9,0.5c0.3,0.1,0.7,0.2,1.2,0.2
		c0.6,0,1.1-0.1,1.7-0.3c0.6-0.2,1-0.4,1.2-0.7h0.1v1.5c-0.5,0.2-0.9,0.4-1.4,0.5s-1,0.2-1.5,0.2c-1.4,0-2.4-0.4-3.2-1.1
		c-0.8-0.7-1.1-1.8-1.1-3.1c0-1.3,0.4-2.4,1.1-3.2c0.7-0.8,1.7-1.2,2.9-1.2c1.1,0,2,0.3,2.6,1c0.6,0.6,0.9,1.6,0.9,2.7V132.5z
		 M111.8,131.4c0-0.7-0.2-1.3-0.5-1.7c-0.4-0.4-0.9-0.6-1.6-0.6c-0.7,0-1.3,0.2-1.8,0.7c-0.4,0.4-0.7,1-0.7,1.6H111.8z"/>
	<path d="M120.3,129.7L120.3,129.7c-0.3,0-0.5-0.1-0.7-0.1c-0.2,0-0.4,0-0.7,0c-0.4,0-0.8,0.1-1.2,0.3c-0.4,0.2-0.8,0.4-1.1,0.7v5.8
		h-1.4v-8.2h1.4v1.2c0.5-0.4,1-0.8,1.4-0.9c0.4-0.2,0.8-0.3,1.3-0.3c0.2,0,0.4,0,0.5,0c0.1,0,0.3,0,0.5,0.1V129.7z"/>
	<path d="M127.7,136.4h-1.4v-0.9c-0.1,0.1-0.3,0.2-0.5,0.3c-0.2,0.1-0.4,0.3-0.6,0.4c-0.2,0.1-0.5,0.2-0.8,0.3s-0.6,0.1-1,0.1
		c-0.7,0-1.4-0.2-1.9-0.7c-0.5-0.5-0.8-1.1-0.8-1.9c0-0.6,0.1-1.1,0.4-1.5c0.3-0.4,0.6-0.7,1.1-0.9c0.5-0.2,1.1-0.4,1.8-0.4
		s1.4-0.1,2.2-0.2v-0.2c0-0.3-0.1-0.6-0.2-0.8c-0.1-0.2-0.3-0.4-0.5-0.5c-0.2-0.1-0.4-0.2-0.7-0.2s-0.6-0.1-0.9-0.1
		c-0.4,0-0.8,0-1.2,0.1c-0.4,0.1-0.9,0.2-1.4,0.4h-0.1v-1.4c0.3-0.1,0.7-0.2,1.2-0.2s1-0.1,1.5-0.1c0.6,0,1.1,0,1.5,0.1
		c0.4,0.1,0.8,0.3,1.1,0.5c0.3,0.2,0.5,0.5,0.7,0.9s0.2,0.8,0.2,1.3V136.4z M126.4,134.4v-2.3c-0.4,0-0.9,0.1-1.5,0.1
		c-0.6,0-1,0.1-1.4,0.2c-0.4,0.1-0.7,0.3-1,0.5c-0.2,0.2-0.4,0.6-0.4,1c0,0.5,0.1,0.8,0.4,1.1c0.3,0.2,0.7,0.4,1.3,0.4
		c0.5,0,0.9-0.1,1.3-0.3C125.6,134.9,126,134.7,126.4,134.4z"/>
	<path d="M137,136.4h-1.4v-0.9c-0.4,0.3-0.8,0.6-1.2,0.8s-0.9,0.3-1.4,0.3c-1,0-1.8-0.4-2.3-1.1c-0.6-0.8-0.9-1.8-0.9-3.1
		c0-0.7,0.1-1.3,0.3-1.9c0.2-0.5,0.5-1,0.8-1.4c0.3-0.4,0.7-0.7,1.2-0.8c0.4-0.2,0.9-0.3,1.4-0.3c0.4,0,0.8,0,1.1,0.1s0.7,0.2,1,0.4
		V125h1.4V136.4z M135.6,134.4v-4.7c-0.4-0.2-0.7-0.3-1-0.3s-0.6-0.1-1-0.1c-0.8,0-1.4,0.3-1.8,0.8s-0.6,1.3-0.6,2.3
		c0,1,0.2,1.7,0.5,2.2c0.3,0.5,0.9,0.8,1.6,0.8c0.4,0,0.8-0.1,1.2-0.3S135.3,134.7,135.6,134.4z"/>
	<path d="M146.7,132.3c0,1.3-0.3,2.4-1,3.2c-0.7,0.8-1.6,1.2-2.7,1.2c-1.2,0-2.1-0.4-2.8-1.2c-0.7-0.8-1-1.8-1-3.2s0.3-2.4,1-3.2
		c0.7-0.8,1.6-1.2,2.8-1.2c1.1,0,2.1,0.4,2.7,1.2C146.3,129.9,146.7,131,146.7,132.3z M145.3,132.3c0-1.1-0.2-1.8-0.6-2.4
		c-0.4-0.5-1-0.8-1.7-0.8c-0.7,0-1.3,0.3-1.7,0.8c-0.4,0.5-0.6,1.3-0.6,2.4c0,1,0.2,1.8,0.6,2.3c0.4,0.5,1,0.8,1.7,0.8
		c0.7,0,1.3-0.3,1.7-0.8C145.1,134.1,145.3,133.4,145.3,132.3z"/>
	<path d="M83.5,178.1c0,0.5-0.1,1-0.3,1.4s-0.5,0.8-0.8,1c-0.4,0.3-0.9,0.6-1.4,0.7c-0.5,0.1-1.1,0.2-1.9,0.2h-3.9v-10.9h3.2
		c0.8,0,1.4,0,1.8,0.1c0.4,0.1,0.8,0.2,1.1,0.4c0.4,0.2,0.7,0.5,0.9,0.8c0.2,0.3,0.3,0.7,0.3,1.2c0,0.5-0.1,1-0.4,1.3
		c-0.3,0.4-0.6,0.7-1.1,0.9v0.1c0.7,0.2,1.3,0.5,1.7,1C83.3,176.7,83.5,177.3,83.5,178.1z M81.1,173.1c0-0.3,0-0.5-0.1-0.7
		s-0.2-0.3-0.4-0.4c-0.2-0.1-0.5-0.2-0.8-0.2s-0.7,0-1.2,0h-1.7v3.1h1.9c0.5,0,0.8,0,1.1-0.1s0.5-0.1,0.7-0.3s0.4-0.3,0.5-0.6
		C81,173.7,81.1,173.5,81.1,173.1z M82,178.1c0-0.4-0.1-0.8-0.2-1s-0.4-0.5-0.7-0.7c-0.2-0.1-0.5-0.2-0.9-0.2
		c-0.3,0-0.7-0.1-1.2-0.1h-2.3v4.1h1.9c0.6,0,1.2,0,1.6-0.1c0.4-0.1,0.7-0.2,1-0.4c0.3-0.2,0.5-0.4,0.6-0.7S82,178.5,82,178.1z"/>
	<path d="M92.3,181.4h-1.4v-0.9c-0.5,0.4-0.9,0.6-1.3,0.8c-0.4,0.2-0.9,0.3-1.4,0.3c-0.9,0-1.5-0.3-2-0.8c-0.5-0.5-0.7-1.3-0.7-2.3
		v-5.3h1.4v4.7c0,0.4,0,0.8,0.1,1.1c0,0.3,0.1,0.5,0.2,0.8c0.1,0.2,0.3,0.4,0.5,0.5c0.2,0.1,0.5,0.1,0.9,0.1c0.4,0,0.7-0.1,1.2-0.3
		c0.4-0.2,0.8-0.4,1.2-0.7v-6.1h1.4V181.4z"/>
	<path d="M101.8,177.5h-6c0,0.5,0.1,0.9,0.2,1.3c0.2,0.4,0.4,0.7,0.6,0.9c0.3,0.2,0.6,0.4,0.9,0.5c0.3,0.1,0.7,0.2,1.2,0.2
		c0.6,0,1.1-0.1,1.7-0.3c0.6-0.2,1-0.4,1.2-0.7h0.1v1.5c-0.5,0.2-0.9,0.4-1.4,0.5s-1,0.2-1.5,0.2c-1.4,0-2.4-0.4-3.2-1.1
		c-0.8-0.7-1.1-1.8-1.1-3.1c0-1.3,0.4-2.4,1.1-3.2c0.7-0.8,1.7-1.2,2.9-1.2c1.1,0,2,0.3,2.6,1c0.6,0.6,0.9,1.6,0.9,2.7V177.5z
		 M100.5,176.4c0-0.7-0.2-1.3-0.5-1.7c-0.4-0.4-0.9-0.6-1.6-0.6c-0.7,0-1.3,0.2-1.8,0.7c-0.4,0.4-0.7,1-0.7,1.6H100.5z"/>
	<path d="M110.8,181.4h-1.4v-4.7c0-0.4,0-0.7-0.1-1.1c0-0.3-0.1-0.6-0.2-0.8c-0.1-0.2-0.3-0.4-0.5-0.5c-0.2-0.1-0.5-0.1-0.9-0.1
		c-0.4,0-0.8,0.1-1.2,0.3s-0.8,0.4-1.2,0.7v6.1h-1.4v-8.2h1.4v0.9c0.4-0.4,0.9-0.6,1.3-0.8s0.9-0.3,1.4-0.3c0.9,0,1.6,0.3,2,0.8
		s0.7,1.3,0.7,2.3V181.4z"/>
	<path d="M120.4,177.3c0,1.3-0.3,2.4-1,3.2c-0.7,0.8-1.6,1.2-2.7,1.2c-1.2,0-2.1-0.4-2.8-1.2c-0.7-0.8-1-1.8-1-3.2s0.3-2.4,1-3.2
		c0.7-0.8,1.6-1.2,2.8-1.2c1.1,0,2.1,0.4,2.7,1.2C120,174.9,120.4,176,120.4,177.3z M119,177.3c0-1.1-0.2-1.8-0.6-2.4
		c-0.4-0.5-1-0.8-1.7-0.8c-0.7,0-1.3,0.3-1.7,0.8c-0.4,0.5-0.6,1.3-0.6,2.4c0,1,0.2,1.8,0.6,2.3c0.4,0.5,1,0.8,1.7,0.8
		c0.7,0,1.3-0.3,1.7-0.8C118.7,179.1,119,178.4,119,177.3z"/>
	<path d="M82.5,226.4h-7.2v-10.9h7.2v1.3h-5.7v3h5.7v1.3h-5.7v4.1h5.7V226.4z"/>
	<path d="M86.1,226.4h-1.4V215h1.4V226.4z"/>
	<path d="M103.9,226.4h-1.5V217l-3,6.4h-0.9l-3-6.4v9.4h-1.4v-10.9h2l2.9,6.1l2.8-6.1h2V226.4z"/>
	<path d="M113.6,222.5h-6c0,0.5,0.1,0.9,0.2,1.3c0.2,0.4,0.4,0.7,0.6,0.9c0.3,0.2,0.6,0.4,0.9,0.5c0.3,0.1,0.7,0.2,1.2,0.2
		c0.6,0,1.1-0.1,1.7-0.3c0.6-0.2,1-0.4,1.2-0.7h0.1v1.5c-0.5,0.2-0.9,0.4-1.4,0.5s-1,0.2-1.5,0.2c-1.4,0-2.4-0.4-3.2-1.1
		c-0.8-0.7-1.1-1.8-1.1-3.1c0-1.3,0.4-2.4,1.1-3.2c0.7-0.8,1.7-1.2,2.9-1.2c1.1,0,2,0.3,2.6,1c0.6,0.6,0.9,1.6,0.9,2.7V222.5z
		 M112.2,221.4c0-0.7-0.2-1.3-0.5-1.7c-0.4-0.4-0.9-0.6-1.6-0.6c-0.7,0-1.3,0.2-1.8,0.7c-0.4,0.4-0.7,1-0.7,1.6H112.2z"/>
	<path d="M118.1,226.6c0,1-0.2,1.7-0.7,2.2c-0.5,0.5-1.1,0.7-2,0.7c-0.2,0-0.5,0-0.8-0.1c-0.3,0-0.6-0.1-0.8-0.1V228h0.1
		c0.1,0.1,0.3,0.1,0.6,0.2c0.2,0.1,0.5,0.1,0.7,0.1c0.4,0,0.6,0,0.8-0.1s0.4-0.2,0.5-0.4s0.2-0.4,0.2-0.7c0-0.3,0-0.6,0-1v-6.6H115
		v-1.2h3.1V226.6z M118.2,216.9h-1.6v-1.4h1.6V216.9z"/>
	<path d="M127.8,222.3c0,1.3-0.3,2.4-1,3.2c-0.7,0.8-1.6,1.2-2.7,1.2c-1.2,0-2.1-0.4-2.8-1.2c-0.7-0.8-1-1.8-1-3.2s0.3-2.4,1-3.2
		c0.7-0.8,1.6-1.2,2.8-1.2c1.1,0,2.1,0.4,2.7,1.2C127.4,219.9,127.8,221,127.8,222.3z M126.4,222.3c0-1.1-0.2-1.8-0.6-2.4
		c-0.4-0.5-1-0.8-1.7-0.8c-0.7,0-1.3,0.3-1.7,0.8c-0.4,0.5-0.6,1.3-0.6,2.4c0,1,0.2,1.8,0.6,2.3c0.4,0.5,1,0.8,1.7,0.8
		c0.7,0,1.3-0.3,1.7-0.8C126.2,224.1,126.4,223.4,126.4,222.3z"/>
	<path d="M135,219.7L135,219.7c-0.3,0-0.5-0.1-0.7-0.1c-0.2,0-0.4,0-0.7,0c-0.4,0-0.8,0.1-1.2,0.3c-0.4,0.2-0.8,0.4-1.1,0.7v5.8
		h-1.4v-8.2h1.4v1.2c0.5-0.4,1-0.8,1.4-0.9c0.4-0.2,0.8-0.3,1.3-0.3c0.2,0,0.4,0,0.5,0c0.1,0,0.3,0,0.5,0.1V219.7z"/>
</g>
<g>
	<ellipse class="st1" cx="35" cy="13" rx="17" ry="7"/>
	<g>
		<linearGradient id="SVGID_2_" gradientUnits="userSpaceOnUse" x1="34.9999" y1="245.0002" x2="34.9999" y2="14.0002">
			<stop  offset="0" style="stop-color:#333333"/>
			<stop  offset="1" style="stop-color:#4D4D4D"/>
		</linearGradient>
		<path class="st2" d="M15.9,245c-3.3,0-5.9-2.6-5.9-5.9V19.9c0-3.3,2.6-5.9,5.9-5.9h38.2c3.3,0,5.9,2.6,5.9,5.9v219.2
			c0,3.3-2.6,5.9-5.9,5.9H15.9z"/>
		<path class="st1" d="M54.1,15c2.7,0,4.9,2.2,4.9,4.9v219.2c0,2.7-2.2,4.9-4.9,4.9H15.9c-2.7,0-4.9-2.2-4.9-4.9V19.9
			c0-2.7,2.2-4.9,4.9-4.9H54.1 M54.1,13H15.9C12.1,13,9,16.1,9,19.9v219.2c0,3.8,3.1,6.9,6.9,6.9h38.2c3.8,0,6.9-3.1,6.9-6.9V19.9
			C61,16.1,57.9,13,54.1,13L54.1,13z"/>
	</g>
	<g>
		<circle cx="35" cy="38" r="18"/>
		<circle class="st3" cx="35" cy="41" r="18"/>
		<path class="st4" d="M35,26c9.4,0,17.2,7.3,17.9,16.5c0-0.5,0.1-1,0.1-1.5c0-9.9-8.1-18-18-18s-18,8.1-18,18c0,0.5,0,1,0.1,1.5
			C17.8,33.3,25.6,26,35,26z"/>
		<path class="st5" d="M35,48c-5.4,0-10.3-1.7-13.8-4.5C22.4,50,28.1,55,35,55s12.6-5,13.8-11.5C45.3,46.3,40.4,48,35,48z"/>
	</g>
	<g>
		<circle cx="35" cy="83" r="18"/>
		<circle class="st6" cx="35" cy="86" r="18"/>
		<path class="st4" d="M35,71c9.4,0,17.2,7.3,17.9,16.5c0-0.5,0.1-1,0.1-1.5c0-9.9-8.1-18-18-18s-18,8.1-18,18c0,0.5,0,1,0.1,1.5
			C17.8,78.3,25.6,71,35,71z"/>
		<path class="st5" d="M35,93c-5.4,0-10.3-1.7-13.8-4.5C22.4,95,28.1,100,35,100s12.6-5,13.8-11.5C45.3,91.3,40.4,93,35,93z"/>
	</g>
	<g>
		<circle cx="35" cy="128" r="18"/>
		<circle class="st7" cx="35" cy="131" r="18"/>
		<path class="st4" d="M35,116c9.4,0,17.2,7.3,17.9,16.5c0-0.5,0.1-1,0.1-1.5c0-9.9-8.1-18-18-18s-18,8.1-18,18c0,0.5,0,1,0.1,1.5
			C17.8,123.3,25.6,116,35,116z"/>
		<path class="st5" d="M35,138c-5.4,0-10.3-1.7-13.8-4.5C22.4,140,28.1,145,35,145s12.6-5,13.8-11.5C45.3,136.3,40.4,138,35,138z"/>
	</g>
	<g>
		<circle cx="35" cy="173" r="18"/>
		<circle class="st8" cx="35" cy="176" r="18"/>
		<path class="st4" d="M35,161c9.4,0,17.2,7.3,17.9,16.5c0-0.5,0.1-1,0.1-1.5c0-9.9-8.1-18-18-18s-18,8.1-18,18c0,0.5,0,1,0.1,1.5
			C17.8,168.3,25.6,161,35,161z"/>
		<path class="st5" d="M35,183c-5.4,0-10.3-1.7-13.8-4.5C22.4,185,28.1,190,35,190s12.6-5,13.8-11.5C45.3,181.3,40.4,183,35,183z"/>
	</g>
	<g>
		<circle cx="35" cy="218" r="18"/>
		<circle class="st9" cx="35" cy="221" r="18"/>
		<path class="st4" d="M35,206c9.4,0,17.2,7.3,17.9,16.5c0-0.5,0.1-1,0.1-1.5c0-9.9-8.1-18-18-18s-18,8.1-18,18c0,0.5,0,1,0.1,1.5
			C17.8,213.3,25.6,206,35,206z"/>
		<path class="st5" d="M35,228c-5.4,0-10.3-1.7-13.8-4.5C22.4,230,28.1,235,35,235s12.6-5,13.8-11.5C45.3,226.3,40.4,228,35,228z"/>
	</g>
	<g>
		<line class="st10" x1="16" y1="62" x2="53" y2="62"/>
	</g>
	<g>
		<line class="st10" x1="16" y1="107" x2="53" y2="107"/>
	</g>
	<g>
		<line class="st10" x1="16" y1="152" x2="53" y2="152"/>
	</g>
	<g>
		<line class="st10" x1="16" y1="197" x2="53" y2="197"/>
	</g>
	<g>
		<g>
			<circle class="st11" cx="16" cy="20" r="1"/>
		</g>
		<g>
			<circle class="st11" cx="54" cy="20" r="1"/>
		</g>
		<g>
			<circle class="st11" cx="16" cy="58" r="1"/>
		</g>
		<g>
			<circle class="st11" cx="54" cy="58" r="1"/>
		</g>
	</g>
	<g>
		<g>
			<circle class="st11" cx="16" cy="65" r="1"/>
		</g>
		<g>
			<circle class="st11" cx="54" cy="65" r="1"/>
		</g>
		<g>
			<circle class="st11" cx="16" cy="103" r="1"/>
		</g>
		<g>
			<circle class="st11" cx="54" cy="103" r="1"/>
		</g>
	</g>
	<g>
		<g>
			<circle class="st11" cx="16" cy="110" r="1"/>
		</g>
		<g>
			<circle class="st11" cx="54" cy="110" r="1"/>
		</g>
		<g>
			<circle class="st11" cx="16" cy="148" r="1"/>
		</g>
		<g>
			<circle class="st11" cx="54" cy="148" r="1"/>
		</g>
	</g>
	<g>
		<g>
			<circle class="st11" cx="16" cy="155" r="1"/>
		</g>
		<g>
			<circle class="st11" cx="54" cy="155" r="1"/>
		</g>
		<g>
			<circle class="st11" cx="16" cy="193" r="1"/>
		</g>
		<g>
			<circle class="st11" cx="54" cy="193" r="1"/>
		</g>
	</g>
	<g>
		<g>
			<circle class="st11" cx="16" cy="200" r="1"/>
		</g>
		<g>
			<circle class="st11" cx="54" cy="200" r="1"/>
		</g>
		<g>
			<circle class="st11" cx="16" cy="238" r="1"/>
		</g>
		<g>
			<circle class="st11" cx="54" cy="238" r="1"/>
		</g>
	</g>
</g>
</svg>
