<?xml version="1.0" encoding="utf-8"?>
<!-- Generator: Adobe Illustrator 24.1.2, SVG Export Plug-In . SVG Version: 6.00 Build 0)  -->
<svg version="1.1" id="Layer_1" xmlns="http://www.w3.org/2000/svg" xmlns:xlink="http://www.w3.org/1999/xlink" x="0px" y="0px"
	 viewBox="0 0 392 390" style="enable-background:new 0 0 392 390;" xml:space="preserve">
<style type="text/css">
	.st0{fill:#5FABDC;}
	.st1{fill:#EA964D;}
	.st2{fill:#74C18B;}
	.st3{fill:#67A577;}
	.st4{fill:#61D5DB;}
	.st5{fill:#F4CF3B;}
	.st6{fill:#94C36B;}
	.st7{fill:#FFFFFF;}
</style>
<circle class="st0" cx="131" cy="130.3" r="127"/>
<circle class="st1" cx="261" cy="130.3" r="127"/>
<circle class="st2" cx="197.5" cy="260.8" r="127"/>
<g>
	<path class="st3" d="M168.6,217.4c-0.5-0.5-0.9-1-1.3-1.4C167.7,216.4,168.1,216.9,168.6,217.4z"/>
	<path class="st3" d="M173.8,222.6c-0.4-0.4-0.8-0.8-1.2-1.2C173,221.8,173.4,222.2,173.8,222.6z"/>
	<path class="st3" d="M177,225.5c-0.4-0.4-0.8-0.7-1.2-1.1C176.2,224.8,176.6,225.2,177,225.5z"/>
	<path class="st3" d="M161.9,209.6c-1.2-1.5-2.3-3-3.5-4.5C159.5,206.6,160.7,208.1,161.9,209.6z"/>
	<path class="st3" d="M163.8,211.9c-0.5-0.6-1-1.1-1.4-1.7C162.8,210.8,163.3,211.3,163.8,211.9z"/>
	<path class="st3" d="M166.1,214.6c-0.5-0.5-0.9-1-1.4-1.6C165.2,213.6,165.7,214.1,166.1,214.6z"/>
	<path class="st3" d="M189.7,235.4c-0.4-0.3-0.8-0.6-1.2-0.8C188.9,234.8,189.3,235.1,189.7,235.4z"/>
	<path class="st3" d="M200.3,236.7c-0.3,0.2-0.7,0.5-1,0.7C199.6,237.2,200,237,200.3,236.7z"/>
	<path class="st3" d="M192.8,237.4c-0.3-0.2-0.7-0.5-1-0.7C192.1,237,192.5,237.2,192.8,237.4z"/>
	<path class="st3" d="M183.5,230.9c-0.4-0.3-0.8-0.6-1.2-0.9C182.7,230.3,183.1,230.6,183.5,230.9z"/>
	<path class="st3" d="M186.6,233.2c-0.4-0.3-0.8-0.6-1.2-0.9C185.7,232.6,186.1,232.9,186.6,233.2z"/>
	<path class="st3" d="M180.5,228.5c-0.4-0.3-0.7-0.6-1.1-0.9C179.7,227.9,180.1,228.2,180.5,228.5z"/>
	<path class="st3" d="M143,177.2c-0.4-1-0.8-2-1.2-3.1C142.2,175.1,142.6,176.2,143,177.2z"/>
	<path class="st3" d="M141.7,173.9c-2.4-6.6-4.3-13.4-5.6-20.4C137.5,160.6,139.3,167.4,141.7,173.9z"/>
	<path class="st3" d="M197.5,133.8c21.4,0,41.5,5.3,59.2,14.6c0.8-5.9,1.3-12,1.3-18.1c0-46.4-24.9-87-62-109.1
		c-37.1,22.2-62,62.7-62,109.1c0,6.7,0.5,13.2,1.5,19.6C153.9,139.7,175,133.8,197.5,133.8z"/>
	<path class="st3" d="M144.4,180.5c-0.4-1-0.9-2-1.3-3C143.5,178.5,143.9,179.5,144.4,180.5z"/>
	<path class="st3" d="M169.9,218.7c0.4,0.5,0.9,0.9,1.3,1.3C170.7,219.6,170.3,219.1,169.9,218.7z"/>
	<path class="st3" d="M153.9,198.6c-0.5-0.7-0.9-1.5-1.4-2.3C153,197.1,153.5,197.8,153.9,198.6z"/>
	<path class="st3" d="M158.1,204.6c-0.5-0.7-1-1.4-1.5-2.2C157,203.2,157.5,203.9,158.1,204.6z"/>
	<path class="st3" d="M150.4,192.7c-2.2-3.9-4.2-8-6-12.1C146.2,184.8,148.2,188.8,150.4,192.7z"/>
	<path class="st3" d="M156,201.6c-0.5-0.7-1-1.4-1.4-2.2C155,200.2,155.5,200.9,156,201.6z"/>
	<path class="st3" d="M152.1,195.6c-0.5-0.8-1-1.6-1.4-2.4C151.1,193.9,151.6,194.7,152.1,195.6z"/>
	<path class="st3" d="M136.2,153.5c-0.2-1.2-0.4-2.3-0.6-3.5C135.8,151.1,136,152.3,136.2,153.5z"/>
	<path class="st3" d="M240.4,194.9c0.4-0.7,0.8-1.4,1.3-2.2C241.2,193.5,240.8,194.2,240.4,194.9z"/>
	<path class="st3" d="M238.4,198.1c0.4-0.7,0.9-1.4,1.3-2.1C239.3,196.7,238.9,197.4,238.4,198.1z"/>
	<path class="st3" d="M236.4,201.2c0.5-0.7,0.9-1.4,1.4-2.1C237.4,199.8,236.9,200.5,236.4,201.2z"/>
	<path class="st3" d="M242.2,191.7c0.4-0.8,0.8-1.5,1.2-2.3C243,190.2,242.6,191,242.2,191.7z"/>
	<path class="st3" d="M243.9,188.6c0.4-0.8,0.9-1.7,1.3-2.5C244.8,186.9,244.3,187.8,243.9,188.6z"/>
	<path class="st3" d="M230.9,208.7c0.4-0.6,0.9-1.1,1.3-1.7C231.8,207.6,231.4,208.2,230.9,208.7z"/>
	<path class="st3" d="M226.2,214.4c0.4-0.5,0.9-1,1.3-1.5C227.1,213.4,226.6,213.9,226.2,214.4z"/>
	<path class="st3" d="M233,206.1c1.1-1.5,2.2-3,3.2-4.5C235.1,203.1,234.1,204.6,233,206.1z"/>
	<path class="st3" d="M223.7,217.2c0.4-0.5,0.9-0.9,1.3-1.4C224.5,216.3,224.1,216.7,223.7,217.2z"/>
	<path class="st3" d="M228.6,211.6c0.4-0.5,0.9-1,1.3-1.6C229.5,210.5,229.1,211.1,228.6,211.6z"/>
	<path class="st3" d="M245.3,185.7c2-4,3.7-8.2,5.2-12.4C249,177.6,247.3,181.7,245.3,185.7z"/>
	<path class="st3" d="M206.8,232.2c-0.4,0.3-0.8,0.6-1.3,0.9C206,232.8,206.4,232.5,206.8,232.2z"/>
	<path class="st3" d="M215.7,225c-0.3,0.3-0.6,0.6-1,0.8C215,225.5,215.4,225.3,215.7,225z"/>
	<path class="st3" d="M219.4,221.5c-0.3,0.3-0.7,0.7-1,1C218.7,222.2,219.1,221.8,219.4,221.5z"/>
	<path class="st3" d="M212.8,227.5c-0.4,0.3-0.8,0.6-1.2,1C212,228.1,212.4,227.8,212.8,227.5z"/>
	<path class="st3" d="M203.7,234.5c-0.4,0.3-0.8,0.6-1.2,0.8C202.9,235.1,203.3,234.8,203.7,234.5z"/>
	<path class="st3" d="M209.9,229.9c-0.4,0.3-0.8,0.6-1.2,1C209,230.5,209.5,230.2,209.9,229.9z"/>
	<path class="st3" d="M221.1,219.9c0.4-0.4,0.8-0.8,1.2-1.3C221.9,219,221.5,219.5,221.1,219.9z"/>
	<path class="st3" d="M251.9,169.3c0.3-1,0.6-1.9,0.9-2.9C252.5,167.3,252.2,168.3,251.9,169.3z"/>
	<path class="st3" d="M250.7,172.8c0.3-1,0.7-1.9,1-2.9C251.4,170.9,251.1,171.8,250.7,172.8z"/>
	<path class="st3" d="M253,165.8c0.3-1,0.6-2,0.8-3C253.6,163.8,253.3,164.8,253,165.8z"/>
	<path class="st3" d="M253.9,162.5c1.2-4.6,2.1-9.3,2.8-14C256.1,153.2,255.1,157.9,253.9,162.5z"/>
</g>
<g>
	<path class="st4" d="M181.4,134.8c1-0.1,2.1-0.2,3.1-0.4C183.5,134.6,182.5,134.7,181.4,134.8z"/>
	<path class="st4" d="M185.3,134.4c1.2-0.1,2.5-0.2,3.7-0.3C187.7,134.2,186.5,134.3,185.3,134.4z"/>
	<path class="st4" d="M189.7,134.1c1-0.1,2-0.1,3-0.1C191.7,133.9,190.7,134,189.7,134.1z"/>
	<path class="st4" d="M173.2,136.2c2.4-0.5,4.9-0.9,7.4-1.2C178.1,135.3,175.6,135.7,173.2,136.2z"/>
	<path class="st4" d="M196,239.4c-31.8-19-54.6-51.4-60.5-89.5c-33.8,18.9-58,52.8-63.7,92.7c17.7,9.3,37.8,14.6,59.2,14.6
		c26.3,0,50.6-8,70.9-21.6C200,237,198,238.2,196,239.4z"/>
	<path class="st4" d="M169,137c1.2-0.3,2.3-0.5,3.5-0.7C171.3,136.5,170.2,136.8,169,137z"/>
	<path class="st4" d="M135.6,149.9c5.7-3.2,11.6-5.9,17.8-8.2C147.2,144,141.3,146.7,135.6,149.9z"/>
	<path class="st4" d="M153.6,141.6c2.4-0.9,4.9-1.7,7.4-2.5C158.5,139.9,156.1,140.7,153.6,141.6z"/>
	<path class="st4" d="M208.6,134.3c1.3,0.1,2.6,0.2,3.8,0.4C211.2,134.5,209.9,134.4,208.6,134.3z"/>
	<path class="st4" d="M165.1,138c1.3-0.3,2.5-0.6,3.8-0.9C167.6,137.4,166.3,137.7,165.1,138z"/>
	<path class="st4" d="M161.3,139.1c1.2-0.3,2.3-0.7,3.5-1C163.6,138.4,162.5,138.7,161.3,139.1z"/>
	<path class="st4" d="M213.3,134.8c0.3,0,0.7,0.1,1,0.1C214,134.9,213.7,134.8,213.3,134.8z"/>
	<path class="st4" d="M197.5,133.8c-1.3,0-2.5,0-3.8,0.1C195,133.8,196.3,133.8,197.5,133.8z"/>
	<path class="st4" d="M197.5,133.8c1.7,0,3.4,0,5.1,0.1C201,133.9,199.3,133.8,197.5,133.8z"/>
	<path class="st4" d="M256.2,151.9c0.2-1.2,0.4-2.3,0.6-3.5c0,0,0,0,0,0C256.6,149.6,256.4,150.8,256.2,151.9z"/>
	<path class="st4" d="M243,142.2c0.2,0.1,0.5,0.2,0.7,0.3C243.5,142.4,243.3,142.3,243,142.2z"/>
	<path class="st4" d="M250,145.1c0,0,0.1,0,0.1,0.1C250.1,145.2,250,145.2,250,145.1z"/>
	<path class="st4" d="M239.5,140.9c0.5,0.2,1,0.4,1.5,0.5C240.5,141.3,240,141.1,239.5,140.9z"/>
	<path class="st4" d="M228.5,137.6c0.8,0.2,1.7,0.4,2.5,0.7C230.2,138.1,229.4,137.8,228.5,137.6z"/>
	<path class="st4" d="M224.8,136.7c1,0.2,1.9,0.4,2.9,0.7C226.7,137.2,225.8,137,224.8,136.7z"/>
	<path class="st4" d="M232.2,138.6c0.5,0.1,0.9,0.3,1.4,0.4C233.2,138.9,232.7,138.7,232.2,138.6z"/>
	<path class="st4" d="M219.4,135.7c1.7,0.3,3.3,0.6,5,1C222.8,136.3,221.1,136,219.4,135.7z"/>
	<path class="st4" d="M242,192.1c1.1-2,2.2-4,3.2-6.1C244.2,188.1,243.1,190.1,242,192.1z"/>
	<path class="st4" d="M240.3,195c0.5-0.8,1-1.7,1.4-2.5C241.3,193.4,240.8,194.2,240.3,195z"/>
	<path class="st4" d="M246.8,182.5c0.4-0.9,0.8-1.8,1.2-2.7C247.6,180.7,247.2,181.6,246.8,182.5z"/>
	<path class="st4" d="M234.5,203.9c1.9-2.7,3.8-5.5,5.5-8.4C238.3,198.4,236.5,201.2,234.5,203.9z"/>
	<path class="st4" d="M245.2,185.9c0.5-1,0.9-1.9,1.4-2.9C246.2,184,245.7,185,245.2,185.9z"/>
	<path class="st4" d="M227.9,212.4c1.5-1.7,2.9-3.5,4.3-5.3C230.8,208.9,229.4,210.7,227.9,212.4z"/>
	<path class="st4" d="M225.8,214.9c0.7-0.8,1.4-1.6,2.2-2.5C227.2,213.2,226.5,214.1,225.8,214.9z"/>
	<path class="st4" d="M223.5,217.4c0.7-0.7,1.3-1.4,2-2.2C224.8,216,224.1,216.7,223.5,217.4z"/>
	<path class="st4" d="M232.5,206.7c0.6-0.8,1.1-1.5,1.7-2.3C233.6,205.2,233.1,205.9,232.5,206.7z"/>
	<path class="st4" d="M248.2,179.4c0.9-2.1,1.7-4.3,2.5-6.4C249.9,175.2,249.1,177.3,248.2,179.4z"/>
	<path class="st4" d="M204.7,233.8c-0.9,0.6-1.8,1.2-2.7,1.8C202.9,235,203.8,234.4,204.7,233.8z"/>
	<path class="st4" d="M215.6,225.1c-0.8,0.7-1.5,1.3-2.3,2C214.1,226.4,214.8,225.8,215.6,225.1z"/>
	<path class="st4" d="M218.3,222.6c-0.8,0.7-1.6,1.5-2.4,2.2C216.7,224.1,217.5,223.3,218.3,222.6z"/>
	<path class="st4" d="M213,227.3c-1.8,1.5-3.5,2.9-5.4,4.3C209.5,230.2,211.3,228.8,213,227.3z"/>
	<path class="st4" d="M207.7,231.6c-0.9,0.7-1.8,1.3-2.7,2C205.9,232.9,206.8,232.3,207.7,231.6z"/>
	<path class="st4" d="M218.3,222.5c1.7-1.6,3.3-3.2,4.8-4.8C221.6,219.4,220,221,218.3,222.5z"/>
	<path class="st4" d="M251.9,169.3c0.3-0.9,0.6-1.9,0.9-2.9C252.5,167.4,252.2,168.3,251.9,169.3z"/>
	<path class="st4" d="M252.9,166c0.6-2.2,1.2-4.5,1.8-6.7C254.2,161.5,253.6,163.8,252.9,166z"/>
	<path class="st4" d="M250.8,172.8c0.3-1,0.7-2,1-3C251.4,170.8,251.1,171.8,250.8,172.8z"/>
	<path class="st4" d="M254.8,158.9c0.2-1,0.4-2,0.7-3C255.2,156.9,255,157.9,254.8,158.9z"/>
	<path class="st4" d="M255.6,155.3c0.2-1,0.4-2,0.6-3C255.9,153.3,255.8,154.3,255.6,155.3z"/>
</g>
<g>
	<path class="st5" d="M163.1,138.6c0.6-0.2,1.3-0.4,1.9-0.5C164.4,138.2,163.7,138.4,163.1,138.6z"/>
	<path class="st5" d="M167.1,137.5c0.6-0.1,1.2-0.3,1.8-0.4C168.3,137.2,167.7,137.4,167.1,137.5z"/>
	<path class="st5" d="M171.2,136.6c0.5-0.1,1.1-0.2,1.6-0.4C172.3,136.3,171.8,136.4,171.2,136.6z"/>
	<path class="st5" d="M151.6,142.4c0.7-0.3,1.3-0.5,2-0.8C152.9,141.9,152.2,142.2,151.6,142.4z"/>
	<path class="st5" d="M155.8,140.9c0.5-0.2,1-0.4,1.5-0.5C156.8,140.5,156.3,140.7,155.8,140.9z"/>
	<path class="st5" d="M159.3,139.7c0.6-0.2,1.2-0.4,1.8-0.6C160.5,139.3,159.9,139.5,159.3,139.7z"/>
	<path class="st5" d="M147.8,144c0.7-0.3,1.3-0.6,2-0.9C149.1,143.4,148.5,143.7,147.8,144z"/>
	<path class="st5" d="M197.5,133.8c1.2,0,2.4,0,3.6,0.1C199.9,133.8,198.7,133.8,197.5,133.8z"/>
	<path class="st5" d="M190.8,134c2.2-0.1,4.5-0.2,6.8-0.2C195.3,133.8,193,133.9,190.8,134z"/>
	<path class="st5" d="M178.6,135.2c0.8-0.1,1.6-0.2,2.4-0.3C180.2,135,179.4,135.1,178.6,135.2z"/>
	<path class="st5" d="M186,134.3c1-0.1,2.1-0.2,3.1-0.3C188.1,134.2,187.1,134.2,186,134.3z"/>
	<path class="st5" d="M182.6,134.7c0.8-0.1,1.6-0.2,2.5-0.3C184.2,134.5,183.4,134.6,182.6,134.7z"/>
	<path class="st5" d="M174.9,135.8c0.7-0.1,1.3-0.2,2-0.4C176.2,135.6,175.6,135.7,174.9,135.8z"/>
	<path class="st5" d="M216.7,135.3c-1-0.1-1.9-0.3-2.9-0.4C214.8,135,215.8,135.1,216.7,135.3z"/>
	<path class="st5" d="M209.4,134.4c-1.2-0.1-2.4-0.2-3.6-0.3C207,134.2,208.2,134.3,209.4,134.4z"/>
	<path class="st5" d="M217.4,135.4c2.4,0.4,4.8,0.8,7.1,1.3C222.2,136.2,219.8,135.7,217.4,135.4z"/>
	<path class="st5" d="M213,134.7c-1.1-0.1-2.3-0.3-3.4-0.4C210.7,134.5,211.8,134.6,213,134.7z"/>
	<path class="st5" d="M235.8,139.7c-2.4-0.7-4.8-1.4-7.2-2C231,138.3,233.4,138.9,235.8,139.7z"/>
	<path class="st5" d="M228.4,137.6c-1.1-0.3-2.2-0.5-3.3-0.8C226.2,137.1,227.3,137.3,228.4,137.6z"/>
	<path class="st5" d="M236,139.8c7.2,2.3,14.1,5.2,20.7,8.7c-5.5,38.7-28.5,71.8-60.7,91c-2-1.2-3.9-2.4-5.8-3.7
		c20.2,13.6,44.6,21.6,70.8,21.6c22.5,0,43.7-5.9,62-16.1C315.6,193.2,281.3,154.1,236,139.8z"/>
	<path class="st5" d="M135.6,149.9C135.6,150,135.6,150,135.6,149.9c4.8,30.9,20.7,58.1,43.6,77.4
		C156.3,208.1,140.4,180.9,135.6,149.9z"/>
	<path class="st5" d="M204.9,134c-0.9-0.1-1.8-0.1-2.7-0.1C203.1,133.9,204,134,204.9,134z"/>
	<path class="st5" d="M140.9,147.2c0.6-0.3,1.1-0.6,1.7-0.8C142,146.6,141.4,146.9,140.9,147.2z"/>
	<path class="st5" d="M137.1,149.1c0.6-0.3,1.3-0.7,1.9-1C138.4,148.4,137.8,148.8,137.1,149.1z"/>
	<path class="st5" d="M190.2,235.7c-3.8-2.6-7.5-5.4-11-8.3C182.7,230.4,186.4,233.1,190.2,235.7z"/>
	<path class="st5" d="M144.6,145.4c0.5-0.2,1-0.5,1.6-0.7C145.6,144.9,145.1,145.1,144.6,145.4z"/>
</g>
<path class="st6" d="M256.7,148.4c-17.7-9.3-37.8-14.6-59.2-14.6c-22.5,0-43.6,5.9-62,16.1c5.9,38,28.7,70.5,60.5,89.5
	C228.2,220.2,251.2,187.1,256.7,148.4z"/>
<g>
	<path class="st7" d="M141.1,290.9c-0.1-1.3-0.2-3.2-0.1-4.7H141c-0.3,1.5-0.6,3.3-0.9,4.3l-1.2,5.1h-2l-1.2-5
		c-0.3-1.1-0.7-2.9-0.9-4.4h-0.1c0,1.5-0.1,3.3-0.2,4.7l-0.2,4.9H132l1-14.2h2.9l1.1,5.1c0.4,1.8,0.8,3.4,1,5h0
		c0.2-1.6,0.5-3.2,0.9-5l1.1-5.1h2.9l0.9,14.2h-2.5L141.1,290.9z"/>
	<path class="st7" d="M151.9,289.7h-3.2v3.8h3.7v2.4h-6.4v-14.2h6.2v2.4h-3.4v3.3h3.2V289.7z"/>
	<path class="st7" d="M154.1,281.9c0.7-0.2,1.7-0.3,2.8-0.3c1.8,0,3,0.4,3.9,1.3c1.2,1.1,1.8,3,1.8,5.7c0,2.9-0.7,4.9-2,6
		c-0.9,0.9-2.4,1.4-4.3,1.4c-0.9,0-1.7-0.1-2.3-0.1V281.9z M156.9,293.7c0.1,0,0.3,0,0.5,0c1.3,0,2.5-1.3,2.5-5.2
		c0-2.9-0.8-4.7-2.4-4.7c-0.2,0-0.4,0-0.5,0.1V293.7z"/>
	<path class="st7" d="M167.2,281.7v14.2h-2.8v-14.2H167.2z"/>
	<path class="st7" d="M178,288.6c0,5.3-1.9,7.5-4.6,7.5c-3.2,0-4.5-3.4-4.5-7.3c0-3.9,1.5-7.2,4.7-7.2
		C177.1,281.6,178,285.3,178,288.6z M171.8,288.8c0,3.2,0.6,4.8,1.7,4.8c1.2,0,1.6-2.1,1.6-5c0-2.5-0.4-4.7-1.6-4.7
		C172.4,284,171.8,285.8,171.8,288.8z"/>
	<path class="st7" d="M181.7,292.7l-0.6,3.2h-2.7l3.1-14.2h3.3l2.8,14.2h-2.7l-0.6-3.2H181.7z M184,290.5l-0.5-3
		c-0.1-0.9-0.3-2.3-0.5-3.2H183c-0.1,0.9-0.4,2.4-0.5,3.2l-0.5,2.9H184z"/>
	<path class="st7" d="M197.7,290.9c-0.1-1.3-0.2-3.2-0.1-4.7h-0.1c-0.3,1.5-0.6,3.3-0.9,4.3l-1.2,5.1h-2l-1.2-5
		c-0.3-1.1-0.7-2.9-0.9-4.4h-0.1c0,1.5-0.1,3.3-0.2,4.7l-0.2,4.9h-2.4l1-14.2h2.9l1.1,5.1c0.4,1.8,0.8,3.4,1,5h0
		c0.2-1.6,0.5-3.2,0.9-5l1.1-5.1h2.9l0.9,14.2H198L197.7,290.9z"/>
	<path class="st7" d="M202.4,281.9c0.8-0.2,1.9-0.3,3.1-0.3c1.3,0,2.6,0.2,3.6,1c0.8,0.6,1.1,1.6,1.1,2.6c0,1.3-0.7,2.5-2.1,3.1v0.1
		c1.6,0.5,2.5,1.8,2.5,3.4c0,1.2-0.4,2.1-1.1,2.8c-0.8,0.9-2.3,1.4-4.6,1.4c-1.1,0-1.9-0.1-2.6-0.1V281.9z M205.2,287.6h0.6
		c1,0,1.7-0.8,1.7-2c0-1-0.5-1.8-1.6-1.8c-0.3,0-0.5,0-0.7,0.1V287.6z M205.2,293.8c0.2,0,0.4,0,0.6,0c1.1,0,2-0.7,2-2.1
		c0-1.4-1-2.1-2.1-2.2h-0.6V293.8z"/>
	<path class="st7" d="M215.3,281.7v14.2h-2.8v-14.2H215.3z"/>
	<path class="st7" d="M223.8,289.7h-3.2v3.8h3.7v2.4h-6.4v-14.2h6.2v2.4h-3.4v3.3h3.2V289.7z"/>
	<path class="st7" d="M226.1,295.9v-14.2h2.5l2.2,5.5c0.4,1.1,1.1,2.9,1.5,4.1h0c-0.1-1.5-0.3-3.9-0.3-6.6v-3.1h2.4v14.2h-2.5
		l-2.2-5.4c-0.5-1.2-1.1-3-1.4-4.3h0c0.1,1.4,0.2,3.6,0.2,6.4v3.2H226.1z"/>
	<path class="st7" d="M238.4,284.3h-2.5v-2.5h7.8v2.5h-2.5v11.6h-2.8V284.3z"/>
	<path class="st7" d="M246.7,292.7l-0.6,3.2h-2.7l3.1-14.2h3.3l2.8,14.2h-2.7l-0.6-3.2H246.7z M249,290.5l-0.5-3
		c-0.1-0.9-0.3-2.3-0.5-3.2H248c-0.1,0.9-0.4,2.4-0.5,3.2l-0.5,2.9H249z"/>
	<path class="st7" d="M254,281.7h2.8v11.8h3.6v2.3H254V281.7z"/>
</g>
<g>
	<path class="st7" d="M283.5,102.7h-3.2v3.8h3.7v2.4h-6.4V94.7h6.2v2.4h-3.4v3.3h3.2V102.7z"/>
	<path class="st7" d="M292.5,108.7c-0.4,0.2-1.2,0.3-2.1,0.3c-3.6,0-5.3-3-5.3-7c0-5.3,3-7.4,5.7-7.4c1,0,1.6,0.2,1.9,0.4l-0.5,2.3
		c-0.3-0.1-0.7-0.3-1.3-0.3c-1.6,0-3,1.3-3,4.8c0,3.4,1.3,4.7,3,4.7c0.5,0,1-0.1,1.3-0.2L292.5,108.7z"/>
	<path class="st7" d="M302.2,101.6c0,5.3-1.9,7.5-4.6,7.5c-3.2,0-4.5-3.4-4.5-7.3c0-3.9,1.5-7.2,4.7-7.2
		C301.2,94.6,302.2,98.3,302.2,101.6z M296,101.8c0,3.2,0.6,4.8,1.7,4.8c1.2,0,1.6-2.1,1.6-5c0-2.5-0.4-4.7-1.6-4.7
		C296.6,97,296,98.8,296,101.8z"/>
	<path class="st7" d="M303.9,108.9V94.7h2.5l2.2,5.5c0.4,1.1,1.1,2.9,1.5,4.1h0c-0.1-1.5-0.3-3.9-0.3-6.6v-3.1h2.4v14.2h-2.5
		l-2.2-5.4c-0.5-1.2-1.1-3-1.4-4.3h0c0.1,1.4,0.2,3.6,0.2,6.4v3.2H303.9z"/>
	<path class="st7" d="M323.1,101.6c0,5.3-1.9,7.5-4.6,7.5c-3.2,0-4.5-3.4-4.5-7.3c0-3.9,1.5-7.2,4.7-7.2
		C322.1,94.6,323.1,98.3,323.1,101.6z M316.9,101.8c0,3.2,0.6,4.8,1.7,4.8c1.2,0,1.6-2.1,1.6-5c0-2.5-0.4-4.7-1.6-4.7
		C317.5,97,316.9,98.8,316.9,101.8z M321.9,91.6l-2.6,2.4h-2l1.7-2.4H321.9z"/>
	<path class="st7" d="M333.5,103.9c-0.1-1.3-0.2-3.2-0.1-4.7h-0.1c-0.3,1.5-0.6,3.3-0.9,4.3l-1.2,5.1h-2l-1.2-5
		c-0.3-1.1-0.7-2.9-0.9-4.4h-0.1c0,1.5-0.1,3.3-0.2,4.7l-0.2,4.9h-2.4l1-14.2h2.9l1.1,5.1c0.4,1.8,0.8,3.4,1,5h0
		c0.2-1.6,0.5-3.2,0.9-5l1.1-5.1h2.9l0.9,14.2h-2.5L333.5,103.9z"/>
	<path class="st7" d="M341,94.7v14.2h-2.8V94.7H341z"/>
	<path class="st7" d="M350.2,108.7c-0.4,0.2-1.2,0.3-2.1,0.3c-3.6,0-5.3-3-5.3-7c0-5.3,3-7.4,5.7-7.4c1,0,1.6,0.2,1.9,0.4l-0.5,2.3
		c-0.3-0.1-0.7-0.3-1.3-0.3c-1.6,0-3,1.3-3,4.8c0,3.4,1.3,4.7,3,4.7c0.5,0,1-0.1,1.3-0.2L350.2,108.7z"/>
	<path class="st7" d="M359.8,101.6c0,5.3-1.9,7.5-4.6,7.5c-3.2,0-4.5-3.4-4.5-7.3c0-3.9,1.5-7.2,4.7-7.2
		C358.9,94.6,359.8,98.3,359.8,101.6z M353.6,101.8c0,3.2,0.6,4.8,1.7,4.8c1.2,0,1.6-2.1,1.6-5c0-2.5-0.4-4.7-1.6-4.7
		C354.2,97,353.6,98.8,353.6,101.8z"/>
</g>
<g>
	<path class="st7" d="M164.4,102.2h-3.5v5.3h4v1.4h-5.6V94.7h5.4v1.4h-3.8v4.7h3.5V102.2z"/>
	<path class="st7" d="M173.9,110.8c-1.1-0.4-2.5-1.1-3.3-1.5c-0.3-0.1-0.4-0.2-0.5-0.2c-2.3,0-4-2.3-4-7.3c0-4.7,1.7-7.2,4.2-7.2
		c2.4,0,3.8,2.6,3.8,7.1c0,3.9-0.9,6-2.4,6.7v0.1c0.9,0.4,1.9,0.7,2.7,1L173.9,110.8z M172.4,101.8c0-2.7-0.5-5.8-2.3-5.8
		c-1.8,0-2.4,3.1-2.4,5.8c0,2.8,0.5,5.8,2.4,5.8C172,107.6,172.4,104.6,172.4,101.8z"/>
	<path class="st7" d="M177.7,94.7v9.5c0,2.5,0.8,3.4,1.9,3.4c1.2,0,2-0.9,2-3.4v-9.5h1.6v9.2c0,3.7-1.5,5.1-3.6,5.1
		c-2.1,0-3.5-1.4-3.5-4.9v-9.4H177.7z"/>
	<path class="st7" d="M187.3,94.7v14.2h-1.6V94.7H187.3z"/>
	<path class="st7" d="M191.5,96.2h-2.6v-1.4h6.8v1.4h-2.6v12.7h-1.6V96.2z"/>
	<path class="st7" d="M198,104.6l-0.9,4.2h-1.6l3.2-14.2h1.8l3.2,14.2h-1.6l-0.9-4.2H198z M200.9,103.3l-0.7-3.6
		c-0.2-1-0.4-2.2-0.6-3.2h-0.1c-0.2,1.1-0.4,2.3-0.6,3.2l-0.7,3.6H200.9z"/>
	<path class="st7" d="M205.9,96.2h-2.6v-1.4h6.8v1.4h-2.6v12.7h-1.6V96.2z"/>
	<path class="st7" d="M213.2,94.7v14.2h-1.6V94.7H213.2z"/>
	<path class="st7" d="M218.1,108.9l-3.2-14.2h1.7l1.4,6.6c0.3,1.6,0.8,3.6,1,5.4h0.1c0.2-1.8,0.6-3.8,0.9-5.5l1.3-6.6h1.7l-3.3,14.2
		H218.1z"/>
	<path class="st7" d="M231.9,101.7c0,5.3-1.8,7.3-4.1,7.3c-2.4,0-3.9-2.5-3.9-7.3c0-4.7,1.7-7.2,4.2-7.2
		C230.5,94.6,231.9,97.2,231.9,101.7z M225.6,101.8c0,2.9,0.6,5.8,2.4,5.8c1.8,0,2.3-3.1,2.3-5.9c0-2.6-0.5-5.8-2.3-5.8
		C226.2,96,225.6,98.9,225.6,101.8z"/>
</g>
<g>
	<path class="st7" d="M101.4,226.9l-3.2-14.2h1.7l1.4,6.6c0.3,1.6,0.8,3.6,1,5.4h0.1c0.2-1.8,0.6-3.8,0.9-5.5l1.3-6.6h1.7l-3.3,14.2
		H101.4z"/>
	<path class="st7" d="M109.5,212.7v14.2h-1.6v-14.2H109.5z"/>
	<path class="st7" d="M114.4,226.9l-3.2-14.2h1.7l1.4,6.6c0.3,1.6,0.8,3.6,1,5.4h0.1c0.2-1.8,0.6-3.8,0.9-5.5l1.3-6.6h1.7l-3.3,14.2
		H114.4z"/>
	<path class="st7" d="M122.6,212.7v14.2h-1.6v-14.2H122.6z"/>
	<path class="st7" d="M125.1,212.9c0.7-0.2,1.5-0.3,2.4-0.3c1.3,0,2.4,0.3,3.1,1c0.6,0.6,0.9,1.4,0.9,2.4c0,1.4-0.8,2.6-2.2,3.2v0
		c1.6,0.4,2.6,1.8,2.6,3.6c0,1.2-0.4,2.1-1,2.8c-0.8,0.9-2.1,1.3-3.7,1.3c-1,0-1.7-0.1-2.1-0.1V212.9z M126.7,218.7h0.7
		c1.3,0,2.5-1,2.5-2.5c0-1.3-0.6-2.3-2.3-2.3c-0.4,0-0.7,0-0.9,0.1V218.7z M126.7,225.6c0.2,0,0.5,0.1,0.8,0.1c1.7,0,2.8-1,2.8-2.8
		c0-2-1.4-2.9-2.9-2.9h-0.7V225.6z"/>
	<path class="st7" d="M133.9,212.7h1.6v12.8h4v1.4h-5.6V212.7z"/>
	<path class="st7" d="M146.3,220.2h-3.5v5.3h4v1.4h-5.6v-14.2h5.4v1.4h-3.8v4.7h3.5V220.2z"/>
</g>
<g>
	<path class="st7" d="M251.3,226.9l-3.2-14.2h1.7l1.4,6.6c0.3,1.6,0.8,3.6,1,5.4h0.1c0.2-1.8,0.6-3.8,0.9-5.5l1.3-6.6h1.7l-3.3,14.2
		H251.3z"/>
	<path class="st7" d="M259.5,212.7v14.2h-1.6v-14.2H259.5z"/>
	<path class="st7" d="M263.8,222.6l-0.9,4.2h-1.6l3.2-14.2h1.8l3.1,14.2h-1.6l-0.9-4.2H263.8z M266.7,221.3l-0.7-3.6
		c-0.2-1-0.4-2.2-0.6-3.2h-0.1c-0.2,1.1-0.4,2.3-0.6,3.2l-0.7,3.6H266.7z"/>
	<path class="st7" d="M271.2,212.9c0.7-0.2,1.5-0.3,2.4-0.3c1.3,0,2.4,0.3,3.1,1c0.6,0.6,0.9,1.4,0.9,2.4c0,1.4-0.8,2.6-2.2,3.2v0
		c1.6,0.4,2.6,1.8,2.6,3.6c0,1.2-0.4,2.1-1,2.8c-0.8,0.9-2.1,1.3-3.7,1.3c-1.1,0-1.7-0.1-2.1-0.1V212.9z M272.8,218.7h0.7
		c1.3,0,2.5-1,2.5-2.5c0-1.3-0.6-2.3-2.3-2.3c-0.4,0-0.7,0-0.9,0.1V218.7z M272.8,225.6c0.2,0,0.5,0.1,0.8,0.1c1.7,0,2.8-1,2.8-2.8
		c0-2-1.4-2.9-2.9-2.9h-0.7V225.6z"/>
	<path class="st7" d="M279.9,212.7h1.6v12.8h4v1.4h-5.6V212.7z"/>
	<path class="st7" d="M292.3,220.2h-3.5v5.3h4v1.4h-5.6v-14.2h5.4v1.4h-3.8v4.7h3.5V220.2z"/>
</g>
<g>
	<path class="st7" d="M164,162.8c0.5-0.2,1.1-0.2,1.8-0.2c1.2,0,2.1,0.3,2.7,0.9c0.9,0.8,1.5,2.2,1.5,4.6c0,2.6-0.6,4-1.4,4.8
		c-0.7,0.8-1.8,1.2-3.2,1.2c-0.5,0-1.1,0-1.5-0.1V162.8z M165.3,173c0.2,0,0.4,0,0.5,0c1.4,0,2.8-1,2.8-4.9c0-2.9-0.9-4.5-2.7-4.5
		c-0.2,0-0.4,0-0.6,0.1V173z"/>
	<path class="st7" d="M175.7,168.6h-2.9v4.3h3.3v1.1h-4.6v-11.5h4.4v1.1h-3.1v3.8h2.9V168.6z"/>
	<path class="st7" d="M177.3,172.6c0.4,0.3,1.1,0.5,1.6,0.5c1.2,0,1.9-0.8,1.9-1.9c0-1.1-0.6-1.7-1.5-2.4c-0.9-0.6-2.2-1.7-2.2-3.2
		c0-1.7,1.2-3,3-3c0.7,0,1.3,0.2,1.6,0.4l-0.3,1.1c-0.3-0.2-0.8-0.4-1.4-0.4c-1.1,0-1.6,0.9-1.6,1.6c0,1.1,0.6,1.6,1.7,2.4
		c1.4,1,2,2,2,3.3c0,2-1.4,3.2-3.2,3.2c-0.8,0-1.6-0.3-1.9-0.5L177.3,172.6z"/>
	<path class="st7" d="M185.1,170.6l-0.8,3.4h-1.3l2.6-11.5h1.4l2.5,11.5h-1.3l-0.8-3.4H185.1z M187.4,169.6l-0.6-2.9
		c-0.2-0.8-0.3-1.8-0.5-2.6h-0.1c-0.1,0.9-0.3,1.9-0.5,2.6l-0.6,2.9H187.4z"/>
	<path class="st7" d="M191.1,162.8c0.6-0.2,1.2-0.2,1.9-0.2c1.1,0,2,0.2,2.6,0.8c0.6,0.6,0.8,1.3,0.8,2.2c0,1.5-0.7,2.4-1.8,2.9v0
		c0.9,0.3,1.3,1.1,1.5,2.6c0.3,1.6,0.5,2.5,0.6,2.9h-1.3c-0.2-0.3-0.4-1.4-0.6-2.8c-0.3-1.6-0.7-2.2-1.9-2.2h-0.5v5h-1.3V162.8z
		 M192.4,168.1h0.5c1.3,0,2.1-0.9,2.1-2.3c0-1.3-0.5-2.1-2-2.2c-0.3,0-0.5,0-0.7,0.1V168.1z"/>
	<path class="st7" d="M198,162.8c0.6-0.2,1.2-0.2,1.9-0.2c1.1,0,2,0.2,2.6,0.8c0.6,0.6,0.8,1.3,0.8,2.2c0,1.5-0.7,2.4-1.8,2.9v0
		c0.8,0.3,1.3,1.1,1.5,2.6c0.3,1.6,0.5,2.5,0.6,2.9h-1.3c-0.2-0.3-0.4-1.4-0.6-2.8c-0.3-1.6-0.7-2.2-1.9-2.2h-0.5v5H198V162.8z
		 M199.4,168.1h0.5c1.3,0,2.1-0.9,2.1-2.3c0-1.3-0.5-2.1-2-2.2c-0.3,0-0.5,0-0.7,0.1V168.1z"/>
	<path class="st7" d="M211,168.3c0,4.3-1.5,5.9-3.3,5.9c-1.9,0-3.2-2-3.2-5.9c0-3.8,1.4-5.8,3.4-5.8
		C209.8,162.5,211,164.6,211,168.3z M205.9,168.4c0,2.4,0.5,4.7,1.9,4.7c1.5,0,1.9-2.5,1.9-4.7c0-2.1-0.4-4.7-1.9-4.7
		C206.3,163.6,205.9,166,205.9,168.4z"/>
	<path class="st7" d="M212.6,162.6h1.3V173h3.2v1.1h-4.5V162.6z"/>
	<path class="st7" d="M218.4,162.6h1.3V173h3.2v1.1h-4.5V162.6z"/>
	<path class="st7" d="M229.6,168.3c0,4.3-1.5,5.9-3.3,5.9c-1.9,0-3.2-2-3.2-5.9c0-3.8,1.4-5.8,3.4-5.8
		C228.4,162.5,229.6,164.6,229.6,168.3z M224.4,168.4c0,2.4,0.5,4.7,1.9,4.7c1.5,0,1.9-2.5,1.9-4.7c0-2.1-0.4-4.7-1.9-4.7
		C224.9,163.6,224.4,166,224.4,168.4z"/>
	<path class="st7" d="M166.2,193c0.4,0.3,1.1,0.5,1.6,0.5c1.2,0,1.9-0.8,1.9-1.9c0-1.1-0.6-1.7-1.5-2.4c-0.9-0.6-2.2-1.7-2.2-3.2
		c0-1.7,1.2-3,3-3c0.7,0,1.3,0.2,1.6,0.4l-0.3,1.1c-0.3-0.2-0.8-0.4-1.4-0.4c-1.1,0-1.6,0.9-1.6,1.6c0,1.1,0.6,1.6,1.7,2.4
		c1.4,1,2,2,2,3.3c0,2-1.4,3.2-3.2,3.2c-0.8,0-1.6-0.3-1.9-0.5L166.2,193z"/>
	<path class="st7" d="M178.7,188.7c0,4.3-1.5,5.9-3.3,5.9c-1.9,0-3.2-2-3.2-5.9c0-3.8,1.4-5.8,3.4-5.8
		C177.5,182.9,178.7,185,178.7,188.7z M173.5,188.8c0,2.4,0.5,4.7,1.9,4.7c1.5,0,1.9-2.5,1.9-4.7c0-2.1-0.4-4.7-1.9-4.7
		C174,184,173.5,186.4,173.5,188.8z"/>
	<path class="st7" d="M180,193c0.4,0.3,1.1,0.5,1.6,0.5c1.2,0,1.9-0.8,1.9-1.9c0-1.1-0.6-1.7-1.5-2.4c-0.9-0.6-2.2-1.7-2.2-3.2
		c0-1.7,1.2-3,3-3c0.7,0,1.3,0.2,1.6,0.4l-0.3,1.1c-0.3-0.2-0.8-0.4-1.4-0.4c-1.1,0-1.6,0.9-1.6,1.6c0,1.1,0.6,1.6,1.7,2.4
		c1.4,1,2,2,2,3.3c0,2-1.4,3.2-3.2,3.2c-0.8,0-1.6-0.3-1.9-0.5L180,193z"/>
	<path class="st7" d="M187.7,184.2h-2.1V183h5.5v1.2H189v10.3h-1.3V184.2z"/>
	<path class="st7" d="M196.6,189h-2.9v4.3h3.3v1.1h-4.6V183h4.4v1.1h-3.1v3.8h2.9V189z"/>
	<path class="st7" d="M198.4,194.5V183h1.2l2.1,5.4c0.5,1.2,1.1,2.8,1.5,4h0c-0.1-1.8-0.2-3.3-0.2-5.3V183h1.2v11.5H203l-2.2-5.5
		c-0.5-1.2-1-2.5-1.4-3.9h0c0.1,1.5,0.1,3,0.1,5.4v4H198.4z"/>
	<path class="st7" d="M207.6,183v11.5h-1.3V183H207.6z"/>
	<path class="st7" d="M209.7,183.2c0.5-0.1,1.2-0.2,1.9-0.2c1,0,1.9,0.2,2.5,0.8c0.5,0.5,0.7,1.1,0.7,2c0,1.2-0.6,2.1-1.8,2.5v0
		c1.3,0.4,2.1,1.4,2.1,2.9c0,1-0.3,1.7-0.8,2.3c-0.6,0.7-1.7,1-3,1c-0.8,0-1.4-0.1-1.7-0.1V183.2z M211,187.9h0.6c1.1,0,2-0.8,2-2
		c0-1.1-0.5-1.9-1.9-1.9c-0.3,0-0.5,0-0.7,0.1V187.9z M211,193.4c0.2,0,0.4,0.1,0.7,0.1c1.4,0,2.2-0.8,2.2-2.3
		c0-1.6-1.1-2.3-2.3-2.3H211V193.4z"/>
	<path class="st7" d="M216.8,183h1.3v10.4h3.2v1.1h-4.5V183z"/>
	<path class="st7" d="M226.8,189h-2.9v4.3h3.3v1.1h-4.6V183h4.4v1.1h-3.1v3.8h2.9V189z"/>
</g>
<g>
	<circle class="st7" cx="63.1" cy="129.7" r="10.4"/>
	<path class="st7" d="M63.1,142c-8.9,0-16,8.2-16,18.4c0,0.4,0,0.9,0.1,1.3c4.6,1.3,10.1,2,16,2c5.9,0,11.4-0.7,16-2
		c0-0.4,0.1-0.8,0.1-1.3C79.1,150.2,72,142,63.1,142z"/>
	<path class="st7" d="M82.6,120.8c-3.4,0-6.4,1.8-8.1,4.5c0.5,1.4,0.8,2.9,0.8,4.4c0,1.9-0.4,3.6-1.2,5.2c1.6,3,4.8,5.1,8.5,5.1
		c5.3,0,9.6-4.3,9.6-9.6C92.3,125.1,88,120.8,82.6,120.8z"/>
	<path class="st7" d="M82.6,141.7c-3,0-5.8,1-8.1,2.8c4.5,4,7.4,10.2,7.4,17.2c0,0,0,0,0,0.1c0.2,0,0.5,0,0.7,0
		c5.5,0,10.6-0.7,14.8-1.9c0-0.4,0.1-0.8,0.1-1.2C97.5,149.3,90.8,141.7,82.6,141.7z"/>
</g>
<g>
	<g>
		<path class="st7" d="M320,147.7c-10,0-18.1,1.6-18.1,3.6c0,2,8.1,3.6,18.1,3.6c10,0,18.1-1.6,18.1-3.6
			C338,149.3,330,147.7,320,147.7z M320,154c-9,0-16.3-1.2-16.3-2.7s7.3-2.7,16.3-2.7c9,0,16.3,1.2,16.3,2.7S329,154,320,154z"/>
		<path class="st7" d="M320,155.8c-10,0-18.1-1.6-18.1-3.6v4.5c0,2,8.1,3.6,18.1,3.6c10,0,18.1-1.6,18.1-3.6v-4.5
			C338,154.2,330,155.8,320,155.8z"/>
	</g>
	<g>
		<path class="st7" d="M316.4,139.5c-10,0-18.1,1.6-18.1,3.6c0,2,8.1,3.6,18.1,3.6s18.1-1.6,18.1-3.6
			C334.4,141.2,326.3,139.5,316.4,139.5z M316.4,145.9c-9,0-16.3-1.2-16.3-2.7s7.3-2.7,16.3-2.7c9,0,16.3,1.2,16.3,2.7
			S325.3,145.9,316.4,145.9z"/>
		<path class="st7" d="M316.4,147.7c-10,0-18.1-1.6-18.1-3.6v4.5c0,2,8.1,3.6,18.1,3.6s18.1-1.6,18.1-3.6v-4.5
			C334.4,146.1,326.3,147.7,316.4,147.7z"/>
	</g>
	<g>
		<path class="st7" d="M320,131.4c-10,0-18.1,1.6-18.1,3.6c0,2,8.1,3.6,18.1,3.6c10,0,18.1-1.6,18.1-3.6
			C338,133,330,131.4,320,131.4z M320,137.7c-9,0-16.3-1.2-16.3-2.7s7.3-2.7,16.3-2.7c9,0,16.3,1.2,16.3,2.7S329,137.7,320,137.7z"
			/>
		<path class="st7" d="M320,139.5c-10,0-18.1-1.6-18.1-3.6v4.5c0,2,8.1,3.6,18.1,3.6c10,0,18.1-1.6,18.1-3.6v-4.5
			C338,137.9,330,139.5,320,139.5z"/>
	</g>
	<g>
		<path class="st7" d="M320,123.1c-10,0-18.1,1.6-18.1,3.6c0,2,8.1,3.6,18.1,3.6c10,0,18.1-1.6,18.1-3.6
			C338,124.7,330,123.1,320,123.1z M320,129.4c-9,0-16.3-1.2-16.3-2.7c0-1.5,7.3-2.7,16.3-2.7c9,0,16.3,1.2,16.3,2.7
			C336.2,128.2,329,129.4,320,129.4z"/>
		<path class="st7" d="M320,131.2c-10,0-18.1-1.6-18.1-3.6v4.5c0,2,8.1,3.6,18.1,3.6c10,0,18.1-1.6,18.1-3.6v-4.5
			C338,129.6,330,131.2,320,131.2z"/>
	</g>
</g>
<path class="st7" d="M198.3,333.3c0.8-4.3,3.2-8.1,3.2-8.1c9.9,3.3,17.3-13.8,17.3-13.8s-7.3-1.3-13.8,1.1s-5.1,9.8-5.1,9.8
	c5-7.1,11.4-6.7,11.4-6.7c-7.9,3.2-11.9,8.7-13.9,13.4c-1.3-5.7-5-13.8-15.3-18.7c0,0,7,0,12,8c0,0,2-8-5-11s-15-2-15-2s7,19,18,16
	c0,0,3.6,6.2,3.1,12c-8.1,0.5-14.4,4.9-14.4,10.2c0,0.2,0,0.5,0.1,0.7c4.6,0.7,10.1,1.1,16,1.1c5.9,0,11.4-0.4,16-1.1
	c0-0.2,0.1-0.5,0.1-0.7C212.9,338.1,206.5,333.8,198.3,333.3z"/>
<g>
	<path class="st7" d="M47.5,106.1c0.6,0.3,1.5,0.5,2.3,0.5c1.3,0,1.9-0.7,1.9-1.6c0-1-0.6-1.5-1.8-2.3c-1.9-1.2-2.7-2.7-2.7-3.9
		c0-2.3,1.5-4.2,4.5-4.2c0.9,0,1.8,0.3,2.2,0.5l-0.4,2.4c-0.4-0.3-1-0.5-1.8-0.5c-1.2,0-1.7,0.7-1.7,1.5c0,0.8,0.4,1.3,2,2.2
		c1.9,1.1,2.6,2.6,2.6,4.1c0,2.6-1.9,4.3-4.7,4.3c-1.1,0-2.2-0.3-2.7-0.6L47.5,106.1z"/>
	<path class="st7" d="M64.4,101.6c0,5.3-1.9,7.5-4.6,7.5c-3.2,0-4.5-3.4-4.5-7.3c0-3.9,1.5-7.2,4.7-7.2
		C63.4,94.6,64.4,98.3,64.4,101.6z M58.2,101.8c0,3.2,0.6,4.8,1.7,4.8c1.2,0,1.6-2.1,1.6-5c0-2.5-0.4-4.7-1.6-4.7
		C58.8,97,58.2,98.8,58.2,101.8z"/>
	<path class="st7" d="M72.9,108.7c-0.4,0.2-1.2,0.3-2.1,0.3c-3.6,0-5.3-3-5.3-7c0-5.3,3-7.4,5.7-7.4c1,0,1.6,0.2,1.9,0.4l-0.5,2.3
		C72.3,97.2,72,97,71.3,97c-1.6,0-3,1.3-3,4.8c0,3.4,1.3,4.7,3,4.7c0.5,0,1-0.1,1.3-0.2L72.9,108.7z"/>
	<path class="st7" d="M77.2,94.7v14.2h-2.8V94.7H77.2z"/>
	<path class="st7" d="M81.9,105.7l-0.6,3.2h-2.7l3.1-14.2H85l2.8,14.2h-2.7l-0.6-3.2H81.9z M84.2,103.5l-0.5-3
		c-0.1-0.9-0.3-2.3-0.5-3.2h-0.1c-0.1,0.9-0.4,2.4-0.5,3.2l-0.5,2.9H84.2z"/>
	<path class="st7" d="M89.3,94.7H92v11.8h3.6v2.3h-6.4V94.7z"/>
</g>
</svg>
