<?xml version="1.0" encoding="utf-8"?>
<!-- Generator: Adobe Illustrator 24.1.2, SVG Export Plug-In . SVG Version: 6.00 Build 0)  -->
<svg version="1.1" id="Layer_1" xmlns="http://www.w3.org/2000/svg" xmlns:xlink="http://www.w3.org/1999/xlink" x="0px" y="0px"
	 viewBox="0 0 236 240" style="enable-background:new 0 0 236 240;" xml:space="preserve">
<style type="text/css">
	.st0{opacity:0.1;}
	.st1{fill:url(#SVGID_1_);}
	.st2{fill:url(#SVGID_2_);}
	.st3{fill:#FFFFFF;}
</style>
<g class="st0">
	<path d="M233.2,17.7c0,0-33.3,2.9-56.3,2.8c-28.5-0.2-76.5,5.6-106,31.9s-47.7,62.3-51.2,105.2s-2.7,46.9-2.7,46.9L6.4,234
		c0,0,3.3,2.7,9.4,2.2c0.3,0,0.5,0.1,0.6-0.2l6.4-26.1c0,0,5.2-2.7,19.1-1.9s89.6,9.2,136.6-24.1s48.9-83.3,51.9-118.2
		S232.1,19.7,233.2,17.7z"/>
</g>
<g>
	<linearGradient id="SVGID_1_" gradientUnits="userSpaceOnUse" x1="191.8646" y1="37.6971" x2="34.9187" y2="184.0517">
		<stop  offset="0" style="stop-color:#8DC945"/>
		<stop  offset="1" style="stop-color:#61934C"/>
	</linearGradient>
	<path class="st1" d="M216.7,3.4c0,0-33,4.8-56,6c-28.5,1.5-76,10-104,38s-44,65-45,108s0,47,0,47l-9,30c0,0,3.5,2.5,9.5,1.6
		c0.3,0,0.5,0,0.6-0.2l4.9-26.4c0,0,5-3,19-3s90,4,135-32s44-86,45-121S215.7,5.4,216.7,3.4z"/>
</g>
<linearGradient id="SVGID_2_" gradientUnits="userSpaceOnUse" x1="243.2747" y1="31.8181" x2="14.5897" y2="245.0703">
	<stop  offset="0" style="stop-color:#8DC945"/>
	<stop  offset="1" style="stop-color:#4B804C"/>
</linearGradient>
<path class="st2" d="M216.7,3.4c0,0-0.2,0-0.5,0.1c-17.7,11.5-90,59.6-124,95.4C68,124.3,28.8,159.4,11.6,201
	c0.1,1.1,0.1,1.3,0.1,1.3l-9,30c0,0,3.5,2.5,9.5,1.6c0.3,0,0.5,0,0.6-0.2l4.9-26.4c0,0,5-3,19-3s90,4,135-32s44-86,45-121
	S215.7,5.4,216.7,3.4z"/>
<g>
	<path class="st3" d="M84.6,140.8c4,2.1,13.3,6,22.6,6c11.8,0,17.8-5.7,17.8-13c0-9.6-9.6-14-19.6-14h-9.3v-16.3h8.8
		c7.6-0.2,17.4-3,17.4-11.3c0-5.8-4.8-10.2-14.4-10.2c-7.9,0-16.3,3.4-20.4,5.8l-4.6-16.5c5.8-3.8,17.5-7.4,30.1-7.4
		c20.8,0,32.4,10.9,32.4,24.3c0,10.3-5.8,18.4-17.8,22.6v0.3c11.7,2.1,21.1,10.9,21.1,23.7c0,17.3-15.1,29.8-39.9,29.8
		c-12.6,0-23.2-3.3-28.9-6.9L84.6,140.8z"/>
</g>
</svg>
